{
  "source": {
    "version": "3c174841792328087503a51cdb76073eaa7dc9ca6b7cc6d0186c44ae71d9ae35",
    "base_name": "renpy-8.3.4",
    "files": [
      "LICENSE.txt",
      "doc/3dstage.html",
      "doc/_images/axes_3d_1.png",
      "doc/_images/axes_3d_2.png",
      "doc/_images/axes_3d_3.png",
      "doc/_images/borders.png",
      "doc/_images/borders1.png",
      "doc/_images/borders2.png",
      "doc/_images/borders3.png",
      "doc/_images/frame_example.png",
      "doc/_static/_sphinx_javascript_frameworks_compat.js",
      "doc/_static/ajax-loader.gif",
      "doc/_static/basic.css",
      "doc/_static/bootstrap-2.3.2/css/bootstrap-responsive.css",
      "doc/_static/bootstrap-2.3.2/css/bootstrap-responsive.min.css",
      "doc/_static/bootstrap-2.3.2/css/bootstrap.css",
      "doc/_static/bootstrap-2.3.2/css/bootstrap.min.css",
      "doc/_static/bootstrap-2.3.2/img/glyphicons-halflings-white.png",
      "doc/_static/bootstrap-2.3.2/img/glyphicons-halflings.png",
      "doc/_static/bootstrap-2.3.2/js/bootstrap.js",
      "doc/_static/bootstrap-2.3.2/js/bootstrap.min.js",
      "doc/_static/bootstrap-3.3.6/css/bootstrap-theme.css",
      "doc/_static/bootstrap-3.3.6/css/bootstrap-theme.css.map",
      "doc/_static/bootstrap-3.3.6/css/bootstrap-theme.min.css",
      "doc/_static/bootstrap-3.3.6/css/bootstrap-theme.min.css.map",
      "doc/_static/bootstrap-3.3.6/css/bootstrap.css",
      "doc/_static/bootstrap-3.3.6/css/bootstrap.css.map",
      "doc/_static/bootstrap-3.3.6/css/bootstrap.min.css",
      "doc/_static/bootstrap-3.3.6/css/bootstrap.min.css.map",
      "doc/_static/bootstrap-3.3.6/fonts/glyphicons-halflings-regular.eot",
      "doc/_static/bootstrap-3.3.6/fonts/glyphicons-halflings-regular.svg",
      "doc/_static/bootstrap-3.3.6/fonts/glyphicons-halflings-regular.ttf",
      "doc/_static/bootstrap-3.3.6/fonts/glyphicons-halflings-regular.woff",
      "doc/_static/bootstrap-3.3.6/fonts/glyphicons-halflings-regular.woff2",
      "doc/_static/bootstrap-3.3.6/js/bootstrap.js",
      "doc/_static/bootstrap-3.3.6/js/bootstrap.min.js",
      "doc/_static/bootstrap-3.3.6/js/npm.js",
      "doc/_static/bootstrap-3.4.1/css/bootstrap-theme.css",
      "doc/_static/bootstrap-3.4.1/css/bootstrap-theme.css.map",
      "doc/_static/bootstrap-3.4.1/css/bootstrap-theme.min.css",
      "doc/_static/bootstrap-3.4.1/css/bootstrap-theme.min.css.map",
      "doc/_static/bootstrap-3.4.1/css/bootstrap.css",
      "doc/_static/bootstrap-3.4.1/css/bootstrap.css.map",
      "doc/_static/bootstrap-3.4.1/css/bootstrap.min.css",
      "doc/_static/bootstrap-3.4.1/css/bootstrap.min.css.map",
      "doc/_static/bootstrap-3.4.1/fonts/glyphicons-halflings-regular.eot",
      "doc/_static/bootstrap-3.4.1/fonts/glyphicons-halflings-regular.svg",
      "doc/_static/bootstrap-3.4.1/fonts/glyphicons-halflings-regular.ttf",
      "doc/_static/bootstrap-3.4.1/fonts/glyphicons-halflings-regular.woff",
      "doc/_static/bootstrap-3.4.1/fonts/glyphicons-halflings-regular.woff2",
      "doc/_static/bootstrap-3.4.1/js/bootstrap.js",
      "doc/_static/bootstrap-3.4.1/js/bootstrap.min.js",
      "doc/_static/bootstrap-3.4.1/js/npm.js",
      "doc/_static/bootstrap-sphinx.css",
      "doc/_static/bootstrap-sphinx.js",
      "doc/_static/bootswatch-2.3.2/amelia/bootstrap.min.css",
      "doc/_static/bootswatch-2.3.2/cerulean/bootstrap.min.css",
      "doc/_static/bootswatch-2.3.2/cosmo/bootstrap.min.css",
      "doc/_static/bootswatch-2.3.2/cyborg/bootstrap.min.css",
      "doc/_static/bootswatch-2.3.2/flatly/bootstrap.min.css",
      "doc/_static/bootswatch-2.3.2/img/glyphicons-halflings-white.png",
      "doc/_static/bootswatch-2.3.2/img/glyphicons-halflings.png",
      "doc/_static/bootswatch-2.3.2/journal/bootstrap.min.css",
      "doc/_static/bootswatch-2.3.2/readable/bootstrap.min.css",
      "doc/_static/bootswatch-2.3.2/simplex/bootstrap.min.css",
      "doc/_static/bootswatch-2.3.2/slate/bootstrap.min.css",
      "doc/_static/bootswatch-2.3.2/spacelab/bootstrap.min.css",
      "doc/_static/bootswatch-2.3.2/spruce/bootstrap.min.css",
      "doc/_static/bootswatch-2.3.2/superhero/bootstrap.min.css",
      "doc/_static/bootswatch-2.3.2/united/bootstrap.min.css",
      "doc/_static/bootswatch-3.3.6/cerulean/bootstrap.min.css",
      "doc/_static/bootswatch-3.3.6/cosmo/bootstrap.min.css",
      "doc/_static/bootswatch-3.3.6/custom/bootstrap.min.css",
      "doc/_static/bootswatch-3.3.6/cyborg/bootstrap.min.css",
      "doc/_static/bootswatch-3.3.6/darkly/bootstrap.min.css",
      "doc/_static/bootswatch-3.3.6/flatly/bootstrap.min.css",
      "doc/_static/bootswatch-3.3.6/fonts/glyphicons-halflings-regular.eot",
      "doc/_static/bootswatch-3.3.6/fonts/glyphicons-halflings-regular.svg",
      "doc/_static/bootswatch-3.3.6/fonts/glyphicons-halflings-regular.ttf",
      "doc/_static/bootswatch-3.3.6/fonts/glyphicons-halflings-regular.woff",
      "doc/_static/bootswatch-3.3.6/fonts/glyphicons-halflings-regular.woff2",
      "doc/_static/bootswatch-3.3.6/journal/bootstrap.min.css",
      "doc/_static/bootswatch-3.3.6/lumen/bootstrap.min.css",
      "doc/_static/bootswatch-3.3.6/paper/bootstrap.min.css",
      "doc/_static/bootswatch-3.3.6/readable/bootstrap.min.css",
      "doc/_static/bootswatch-3.3.6/sandstone/bootstrap.min.css",
      "doc/_static/bootswatch-3.3.6/simplex/bootstrap.min.css",
      "doc/_static/bootswatch-3.3.6/slate/bootstrap.min.css",
      "doc/_static/bootswatch-3.3.6/spacelab/bootstrap.min.css",
      "doc/_static/bootswatch-3.3.6/superhero/bootstrap.min.css",
      "doc/_static/bootswatch-3.3.6/united/bootstrap.min.css",
      "doc/_static/bootswatch-3.3.6/yeti/bootstrap.min.css",
      "doc/_static/bootswatch-3.4.1/cerulean/bootstrap.min.css",
      "doc/_static/bootswatch-3.4.1/cosmo/bootstrap.min.css",
      "doc/_static/bootswatch-3.4.1/cyborg/bootstrap.min.css",
      "doc/_static/bootswatch-3.4.1/darkly/bootstrap.min.css",
      "doc/_static/bootswatch-3.4.1/flatly/bootstrap.min.css",
      "doc/_static/bootswatch-3.4.1/fonts/glyphicons-halflings-regular.eot",
      "doc/_static/bootswatch-3.4.1/fonts/glyphicons-halflings-regular.svg",
      "doc/_static/bootswatch-3.4.1/fonts/glyphicons-halflings-regular.ttf",
      "doc/_static/bootswatch-3.4.1/fonts/glyphicons-halflings-regular.woff",
      "doc/_static/bootswatch-3.4.1/fonts/glyphicons-halflings-regular.woff2",
      "doc/_static/bootswatch-3.4.1/journal/bootstrap.min.css",
      "doc/_static/bootswatch-3.4.1/lumen/bootstrap.min.css",
      "doc/_static/bootswatch-3.4.1/paper/bootstrap.min.css",
      "doc/_static/bootswatch-3.4.1/readable/bootstrap.min.css",
      "doc/_static/bootswatch-3.4.1/sandstone/bootstrap.min.css",
      "doc/_static/bootswatch-3.4.1/simplex/bootstrap.min.css",
      "doc/_static/bootswatch-3.4.1/slate/bootstrap.min.css",
      "doc/_static/bootswatch-3.4.1/spacelab/bootstrap.min.css",
      "doc/_static/bootswatch-3.4.1/superhero/bootstrap.min.css",
      "doc/_static/bootswatch-3.4.1/united/bootstrap.min.css",
      "doc/_static/bootswatch-3.4.1/yeti/bootstrap.min.css",
      "doc/_static/comment-bright.png",
      "doc/_static/comment-close.png",
      "doc/_static/comment.png",
      "doc/_static/css/badge_only.css",
      "doc/_static/css/fonts/Roboto-Slab-Bold.woff",
      "doc/_static/css/fonts/Roboto-Slab-Bold.woff2",
      "doc/_static/css/fonts/Roboto-Slab-Regular.woff",
      "doc/_static/css/fonts/Roboto-Slab-Regular.woff2",
      "doc/_static/css/fonts/fontawesome-webfont.eot",
      "doc/_static/css/fonts/fontawesome-webfont.svg",
      "doc/_static/css/fonts/fontawesome-webfont.ttf",
      "doc/_static/css/fonts/fontawesome-webfont.woff",
      "doc/_static/css/fonts/fontawesome-webfont.woff2",
      "doc/_static/css/fonts/lato-bold-italic.woff",
      "doc/_static/css/fonts/lato-bold-italic.woff2",
      "doc/_static/css/fonts/lato-bold.woff",
      "doc/_static/css/fonts/lato-bold.woff2",
      "doc/_static/css/fonts/lato-normal-italic.woff",
      "doc/_static/css/fonts/lato-normal-italic.woff2",
      "doc/_static/css/fonts/lato-normal.woff",
      "doc/_static/css/fonts/lato-normal.woff2",
      "doc/_static/css/theme.css",
      "doc/_static/custom.css",
      "doc/_static/dark_mode_css/custom.css",
      "doc/_static/dark_mode_css/dark.css",
      "doc/_static/dark_mode_css/general.css",
      "doc/_static/dark_mode_js/default_dark.js",
      "doc/_static/dark_mode_js/default_light.js",
      "doc/_static/dark_mode_js/theme_switcher.js",
      "doc/_static/doctools.js",
      "doc/_static/documentation_options.js",
      "doc/_static/down-pressed.png",
      "doc/_static/down.png",
      "doc/_static/environment.txt",
      "doc/_static/file.png",
      "doc/_static/jquery-1.11.1.js",
      "doc/_static/jquery-3.1.0.js",
      "doc/_static/jquery-3.2.1.js",
      "doc/_static/jquery-3.5.1.js",
      "doc/_static/jquery-3.6.0.js",
      "doc/_static/jquery.js",
      "doc/_static/js/badge_only.js",
      "doc/_static/js/html5shiv-printshiv.min.js",
      "doc/_static/js/html5shiv.min.js",
      "doc/_static/js/jquery-1.11.0.min.js",
      "doc/_static/js/jquery-1.12.4.min.js",
      "doc/_static/js/jquery-fix.js",
      "doc/_static/js/theme.js",
      "doc/_static/language_data.js",
      "doc/_static/minus.png",
      "doc/_static/navbar-logo.png",
      "doc/_static/plus.png",
      "doc/_static/pygments.css",
      "doc/_static/renpydoc.css",
      "doc/_static/searchtools.js",
      "doc/_static/sphinx_highlight.js",
      "doc/_static/underscore-1.13.1.js",
      "doc/_static/underscore-1.3.1.js",
      "doc/_static/underscore.js",
      "doc/_static/up-pressed.png",
      "doc/_static/up.png",
      "doc/_static/websupport.js",
      "doc/achievement.html",
      "doc/android-packaging.html",
      "doc/android.html",
      "doc/atl.html",
      "doc/audio.html",
      "doc/audio_filters.html",
      "doc/bubble.html",
      "doc/build.html",
      "doc/cdd.html",
      "doc/cds.html",
      "doc/changelog.html",
      "doc/changelog6.html",
      "doc/character_callbacks.html",
      "doc/chromeos.html",
      "doc/cli.html",
      "doc/color_class.html",
      "doc/conditional.html",
      "doc/config.html",
      "doc/credits.html",
      "doc/custom_text_tags.html",
      "doc/developer_tools.html",
      "doc/dialogue.html",
      "doc/director.html",
      "doc/display_problems.html",
      "doc/displayables.html",
      "doc/displaying_images.html",
      "doc/distributor.html",
      "doc/downloader.html",
      "doc/drag_drop.html",
      "doc/editor.html",
      "doc/environment_variables.html",
      "doc/fetch.html",
      "doc/file_python.html",
      "doc/genindex.html",
      "doc/gesture.html",
      "doc/gui.html",
      "doc/gui_advanced.html",
      "doc/history.html",
      "doc/iap.html",
      "doc/im.html",
      "doc/incompatible.html",
      "doc/index.html",
      "doc/input.html",
      "doc/ios.html",
      "doc/keymap.html",
      "doc/label.html",
      "doc/language_basics.html",
      "doc/launcher.html",
      "doc/layeredimage.html",
      "doc/license.html",
      "doc/lifecycle.html",
      "doc/live2d.html",
      "doc/matrix.html",
      "doc/matrixcolor.html",
      "doc/menus.html",
      "doc/model.html",
      "doc/modes.html",
      "doc/mouse.html",
      "doc/movie.html",
      "doc/multiple.html",
      "doc/namespaces.html",
      "doc/nvl_mode.html",
      "doc/objects.inv",
      "doc/other.html",
      "doc/persistent.html",
      "doc/preferences.html",
      "doc/problems.html",
      "doc/py-function-class-index.html",
      "doc/python.html",
      "doc/quickstart.html",
      "doc/raspi.html",
      "doc/raspy.html",
      "doc/ren_py.html",
      "doc/reserved.html",
      "doc/rooms.html",
      "doc/save_load_rollback.html",
      "doc/screen_actions.html",
      "doc/screen_optimization.html",
      "doc/screen_python.html",
      "doc/screen_special.html",
      "doc/screens.html",
      "doc/screenshot.html",
      "doc/search.html",
      "doc/searchindex.js",
      "doc/security.html",
      "doc/self_voicing.html",
      "doc/shader_parts.html",
      "doc/side_image.html",
      "doc/skins.html",
      "doc/splashscreen_presplash.html",
      "doc/sponsors.html",
      "doc/sprites.html",
      "doc/statement_equivalents.html",
      "doc/std-style-property-index.html",
      "doc/std-transform-property-index.html",
      "doc/std-var-index.html",
      "doc/store_variables.html",
      "doc/style.html",
      "doc/style_properties.html",
      "doc/template_projects.html",
      "doc/text.html",
      "doc/textshaders.html",
      "doc/thequestion.html",
      "doc/thequestion_nvl.html",
      "doc/trans_trans_python.html",
      "doc/transform_properties.html",
      "doc/transforms.html",
      "doc/transitions.html",
      "doc/translating_renpy.html",
      "doc/translation.html",
      "doc/udd.html",
      "doc/updater.html",
      "doc/voice.html",
      "doc/web.html",
      "gui/game/gui.rpy",
      "gui/game/gui/bubble.png",
      "gui/game/gui/thoughtbubble.png",
      "gui/game/guisupport.rpy",
      "gui/game/options.rpy",
      "gui/game/screens.rpy",
      "gui/game/script.rpy",
      "gui/game/testcases.rpy",
      "gui/project.json",
      "launcher/Atom.edit.py",
      "launcher/None.edit.py",
      "launcher/System Editor.edit.py",
      "launcher/Visual Studio Code (System).edit.py",
      "launcher/Visual Studio Code.edit.py",
      "launcher/game/ability.rpy",
      "launcher/game/about.rpy",
      "launcher/game/add_file.rpy",
      "launcher/game/android.rpy",
      "launcher/game/androidstrings.rpy",
      "launcher/game/archiver.rpy",
      "launcher/game/change_icon.py",
      "launcher/game/choose_directory.rpy",
      "launcher/game/choose_theme.rpy",
      "launcher/game/consolecommand.rpy",
      "launcher/game/distribute.rpy",
      "launcher/game/distribute_gui.rpy",
      "launcher/game/dmgcheck.rpy",
      "launcher/game/download.rpy",
      "launcher/game/editor.rpy",
      "launcher/game/entitlements.plist",
      "launcher/game/fonts/Roboto-Light.ttf",
      "launcher/game/fonts/Roboto-Regular.ttf",
      "launcher/game/front_page.rpy",
      "launcher/game/gui7.rpy",
      "launcher/game/gui7/__init__.py",
      "launcher/game/gui7/code.py",
      "launcher/game/gui7/icon.png",
      "launcher/game/gui7/images.py",
      "launcher/game/gui7/parameters.py",
      "launcher/game/images/background.png",
      "launcher/game/images/logo.png",
      "launcher/game/images/logo32.png",
      "launcher/game/images/pattern.png",
      "launcher/game/images/window-icon-mac.png",
      "launcher/game/images/window-icon.png",
      "launcher/game/images/window.png",
      "launcher/game/install.rpy",
      "launcher/game/installer.py",
      "launcher/game/installer.rpy",
      "launcher/game/interface.rpy",
      "launcher/game/ios.rpy",
      "launcher/game/itch.rpy",
      "launcher/game/mac.rpy",
      "launcher/game/mobilebuild.rpy",
      "launcher/game/navigation.rpy",
      "launcher/game/new_project.rpy",
      "launcher/game/options.rpy",
      "launcher/game/package_formats.rpy",
      "launcher/game/preferences.rpy",
      "launcher/game/project.rpy",
      "launcher/game/renpy_ecdsa_public.pem",
      "launcher/game/renpy_public.pem",
      "launcher/game/style.rpy",
      "launcher/game/tail.rpy",
      "launcher/game/testcases.rpy",
      "launcher/game/theme_data.rpy",
      "launcher/game/tl/arabic/common.rpy",
      "launcher/game/tl/arabic/developer.rpy",
      "launcher/game/tl/arabic/error.rpy",
      "launcher/game/tl/arabic/gui.rpy",
      "launcher/game/tl/arabic/launcher.rpy",
      "launcher/game/tl/arabic/obsolete.rpy",
      "launcher/game/tl/arabic/options.rpy",
      "launcher/game/tl/arabic/screens.rpy",
      "launcher/game/tl/arabic/script.rpym",
      "launcher/game/tl/arabic/style.rpy",
      "launcher/game/tl/danish/common.rpy",
      "launcher/game/tl/danish/developer.rpy",
      "launcher/game/tl/danish/error.rpy",
      "launcher/game/tl/danish/gui.rpy",
      "launcher/game/tl/danish/launcher.rpy",
      "launcher/game/tl/danish/obsolete.rpy",
      "launcher/game/tl/danish/options.rpy",
      "launcher/game/tl/danish/screens.rpy",
      "launcher/game/tl/danish/script.rpym",
      "launcher/game/tl/finnish/common.rpy",
      "launcher/game/tl/finnish/developer.rpy",
      "launcher/game/tl/finnish/error.rpy",
      "launcher/game/tl/finnish/gui.rpy",
      "launcher/game/tl/finnish/launcher.rpy",
      "launcher/game/tl/finnish/obsolete.rpy",
      "launcher/game/tl/finnish/options.rpy",
      "launcher/game/tl/finnish/screens.rpy",
      "launcher/game/tl/finnish/style.rpy",
      "launcher/game/tl/french/common.rpy",
      "launcher/game/tl/french/developer.rpy",
      "launcher/game/tl/french/error.rpy",
      "launcher/game/tl/french/gui.rpy",
      "launcher/game/tl/french/launcher.rpy",
      "launcher/game/tl/french/obsolete.rpy",
      "launcher/game/tl/french/options.rpy",
      "launcher/game/tl/french/screens.rpy",
      "launcher/game/tl/french/script.rpym",
      "launcher/game/tl/german/common.rpy",
      "launcher/game/tl/german/developer.rpy",
      "launcher/game/tl/german/error.rpy",
      "launcher/game/tl/german/gui.rpy",
      "launcher/game/tl/german/launcher.rpy",
      "launcher/game/tl/german/obsolete.rpy",
      "launcher/game/tl/german/options.rpy",
      "launcher/game/tl/german/screens.rpy",
      "launcher/game/tl/german/script.rpym",
      "launcher/game/tl/greek/Z_ReadMe.txt",
      "launcher/game/tl/greek/Z_changelog.txt",
      "launcher/game/tl/greek/common.rpy",
      "launcher/game/tl/greek/developer.rpy",
      "launcher/game/tl/greek/error.rpy",
      "launcher/game/tl/greek/gui.rpy",
      "launcher/game/tl/greek/launcher.rpy",
      "launcher/game/tl/greek/obsolete.rpy",
      "launcher/game/tl/greek/options.rpy",
      "launcher/game/tl/greek/screens.rpy",
      "launcher/game/tl/greek/style.rpy",
      "launcher/game/tl/indonesian/common.rpy",
      "launcher/game/tl/indonesian/developer.rpy",
      "launcher/game/tl/indonesian/error.rpy",
      "launcher/game/tl/indonesian/gui.rpy",
      "launcher/game/tl/indonesian/launcher.rpy",
      "launcher/game/tl/indonesian/obsolete.rpy",
      "launcher/game/tl/indonesian/options.rpy",
      "launcher/game/tl/indonesian/screens.rpy",
      "launcher/game/tl/indonesian/script.rpym",
      "launcher/game/tl/indonesian/style.rpy",
      "launcher/game/tl/italian/common.rpy",
      "launcher/game/tl/italian/developer.rpy",
      "launcher/game/tl/italian/error.rpy",
      "launcher/game/tl/italian/gui.rpy",
      "launcher/game/tl/italian/launcher.rpy",
      "launcher/game/tl/italian/obsolete.rpy",
      "launcher/game/tl/italian/options.rpy",
      "launcher/game/tl/italian/screens.rpy",
      "launcher/game/tl/italian/script.rpym",
      "launcher/game/tl/japanese/common.rpy",
      "launcher/game/tl/japanese/developer.rpy",
      "launcher/game/tl/japanese/error.rpy",
      "launcher/game/tl/japanese/gui.rpy",
      "launcher/game/tl/japanese/launcher.rpy",
      "launcher/game/tl/japanese/obsolete.rpy",
      "launcher/game/tl/japanese/options.rpy",
      "launcher/game/tl/japanese/screens.rpy",
      "launcher/game/tl/japanese/script.rpym",
      "launcher/game/tl/japanese/style.rpy",
      "launcher/game/tl/korean/common.rpy",
      "launcher/game/tl/korean/developer.rpy",
      "launcher/game/tl/korean/error.rpy",
      "launcher/game/tl/korean/gui.rpy",
      "launcher/game/tl/korean/launcher.rpy",
      "launcher/game/tl/korean/obsolete.rpy",
      "launcher/game/tl/korean/options.rpy",
      "launcher/game/tl/korean/screens.rpy",
      "launcher/game/tl/korean/script.rpym",
      "launcher/game/tl/korean/style.rpy",
      "launcher/game/tl/malay/common.rpy",
      "launcher/game/tl/malay/developer.rpy",
      "launcher/game/tl/malay/error.rpy",
      "launcher/game/tl/malay/gui.rpy",
      "launcher/game/tl/malay/launcher.rpy",
      "launcher/game/tl/malay/options.rpy",
      "launcher/game/tl/malay/screens.rpy",
      "launcher/game/tl/malay/script.rpym",
      "launcher/game/tl/malay/style.rpy",
      "launcher/game/tl/piglatin/common.rpy",
      "launcher/game/tl/piglatin/developer.rpy",
      "launcher/game/tl/piglatin/error.rpy",
      "launcher/game/tl/piglatin/gui.rpy",
      "launcher/game/tl/piglatin/launcher.rpy",
      "launcher/game/tl/piglatin/obsolete.rpy",
      "launcher/game/tl/piglatin/options.rpy",
      "launcher/game/tl/piglatin/screens.rpy",
      "launcher/game/tl/piglatin/script.rpym",
      "launcher/game/tl/polish/common.rpy",
      "launcher/game/tl/polish/developer.rpy",
      "launcher/game/tl/polish/error.rpy",
      "launcher/game/tl/polish/gui.rpy",
      "launcher/game/tl/polish/launcher.rpy",
      "launcher/game/tl/polish/options.rpy",
      "launcher/game/tl/polish/screens.rpy",
      "launcher/game/tl/polish/script.rpym",
      "launcher/game/tl/portuguese/about.rpy",
      "launcher/game/tl/portuguese/add_file.rpy",
      "launcher/game/tl/portuguese/android.rpy",
      "launcher/game/tl/portuguese/choose_directory.rpy",
      "launcher/game/tl/portuguese/choose_theme.rpy",
      "launcher/game/tl/portuguese/common.rpy",
      "launcher/game/tl/portuguese/developer.rpy",
      "launcher/game/tl/portuguese/distribute.rpy",
      "launcher/game/tl/portuguese/distribute_gui.rpy",
      "launcher/game/tl/portuguese/editor.rpy",
      "launcher/game/tl/portuguese/error.rpy",
      "launcher/game/tl/portuguese/front_page.rpy",
      "launcher/game/tl/portuguese/gui.rpy",
      "launcher/game/tl/portuguese/interface.rpy",
      "launcher/game/tl/portuguese/ios.rpy",
      "launcher/game/tl/portuguese/launcher.rpy",
      "launcher/game/tl/portuguese/navigation.rpy",
      "launcher/game/tl/portuguese/new_project.rpy",
      "launcher/game/tl/portuguese/options.rpy",
      "launcher/game/tl/portuguese/preferences.rpy",
      "launcher/game/tl/portuguese/project.rpy",
      "launcher/game/tl/portuguese/screens.rpy",
      "launcher/game/tl/portuguese/style.rpy",
      "launcher/game/tl/portuguese/translations.rpy",
      "launcher/game/tl/portuguese/updater.rpy",
      "launcher/game/tl/russian/common.rpy",
      "launcher/game/tl/russian/developer.rpy",
      "launcher/game/tl/russian/error.rpy",
      "launcher/game/tl/russian/gui.rpy",
      "launcher/game/tl/russian/launcher.rpy",
      "launcher/game/tl/russian/obsolete.rpy",
      "launcher/game/tl/russian/options.rpy",
      "launcher/game/tl/russian/screens.rpy",
      "launcher/game/tl/russian/script.rpym",
      "launcher/game/tl/schinese/common.rpy",
      "launcher/game/tl/schinese/developer.rpy",
      "launcher/game/tl/schinese/error.rpy",
      "launcher/game/tl/schinese/gui.rpy",
      "launcher/game/tl/schinese/launcher.rpy",
      "launcher/game/tl/schinese/options.rpy",
      "launcher/game/tl/schinese/screens.rpy",
      "launcher/game/tl/schinese/script.rpym",
      "launcher/game/tl/schinese/style.rpy",
      "launcher/game/tl/spanish/common.rpy",
      "launcher/game/tl/spanish/developer.rpy",
      "launcher/game/tl/spanish/error.rpy",
      "launcher/game/tl/spanish/gui.rpy",
      "launcher/game/tl/spanish/launcher.rpy",
      "launcher/game/tl/spanish/obsolete.rpy",
      "launcher/game/tl/spanish/options.rpy",
      "launcher/game/tl/spanish/screens.rpy",
      "launcher/game/tl/spanish/script.rpym",
      "launcher/game/tl/tchinese/common.rpy",
      "launcher/game/tl/tchinese/developer.rpy",
      "launcher/game/tl/tchinese/error.rpy",
      "launcher/game/tl/tchinese/gui.rpy",
      "launcher/game/tl/tchinese/launcher.rpy",
      "launcher/game/tl/tchinese/options.rpy",
      "launcher/game/tl/tchinese/screens.rpy",
      "launcher/game/tl/tchinese/script.rpym",
      "launcher/game/tl/tchinese/style.rpy",
      "launcher/game/tl/turkish/common.rpy",
      "launcher/game/tl/turkish/developer.rpy",
      "launcher/game/tl/turkish/error.rpy",
      "launcher/game/tl/turkish/gui.rpy",
      "launcher/game/tl/turkish/launcher.rpy",
      "launcher/game/tl/turkish/options.rpy",
      "launcher/game/tl/turkish/screens.rpy",
      "launcher/game/tl/turkish/script.rpym",
      "launcher/game/tl/ukrainian/common.rpy",
      "launcher/game/tl/ukrainian/developer.rpy",
      "launcher/game/tl/ukrainian/error.rpy",
      "launcher/game/tl/ukrainian/gui.rpy",
      "launcher/game/tl/ukrainian/launcher.rpy",
      "launcher/game/tl/ukrainian/options.rpy",
      "launcher/game/tl/ukrainian/screens.rpy",
      "launcher/game/tl/ukrainian/script.rpym",
      "launcher/game/tl/vietnamese/common.rpy",
      "launcher/game/tl/vietnamese/developer.rpy",
      "launcher/game/tl/vietnamese/error.rpy",
      "launcher/game/tl/vietnamese/gui.rpy",
      "launcher/game/tl/vietnamese/launcher.rpy",
      "launcher/game/tl/vietnamese/obsolete.rpy",
      "launcher/game/tl/vietnamese/options.rpy",
      "launcher/game/tl/vietnamese/screens.rpy",
      "launcher/game/translations.rpy",
      "launcher/game/updater.rpy",
      "launcher/game/util.rpy",
      "launcher/game/web.rpy",
      "launcher/game/webserver.py",
      "launcher/icon.icns",
      "launcher/project.json",
      "launcher/skin/skin.rpy",
      "launcher/skin/skin_background.jpg",
      "module/IMG_savepng.c",
      "module/IMG_savepng.h",
      "module/_renpy.pyx",
      "module/_renpybidi.pyx",
      "module/_renpytfd.pyx",
      "module/build_static.pyc",
      "module/core.c",
      "module/ffmedia.c",
      "module/ftsupport.c",
      "module/ftsupport.h",
      "module/generate_linebreak.py",
      "module/generate_styles.py",
      "module/generate_styles.pyc",
      "module/generate_styles.pyo",
      "module/include/freetype.pxd",
      "module/include/pygame.pxd",
      "module/include/pygame_sdl2.pxd",
      "module/include/sdl2.pxd",
      "module/include/style_common.pxi",
      "module/include/ttgsubtable.pxd",
      "module/libhydrogen/LICENSE",
      "module/libhydrogen/Makefile",
      "module/libhydrogen/hydrogen.c",
      "module/libhydrogen/hydrogen.h",
      "module/libhydrogen/impl/common.h",
      "module/libhydrogen/impl/core.h",
      "module/libhydrogen/impl/gimli-core.h",
      "module/libhydrogen/impl/gimli-core/portable.h",
      "module/libhydrogen/impl/gimli-core/sse2.h",
      "module/libhydrogen/impl/hash.h",
      "module/libhydrogen/impl/hydrogen_p.h",
      "module/libhydrogen/impl/kdf.h",
      "module/libhydrogen/impl/kx.h",
      "module/libhydrogen/impl/pwhash.h",
      "module/libhydrogen/impl/random.h",
      "module/libhydrogen/impl/random/avr.h",
      "module/libhydrogen/impl/random/esp32.h",
      "module/libhydrogen/impl/random/linux_kernel.h",
      "module/libhydrogen/impl/random/mbed.h",
      "module/libhydrogen/impl/random/nrf52832.h",
      "module/libhydrogen/impl/random/particle.h",
      "module/libhydrogen/impl/random/riot.h",
      "module/libhydrogen/impl/random/rtthread.h",
      "module/libhydrogen/impl/random/stm32.h",
      "module/libhydrogen/impl/random/unix.h",
      "module/libhydrogen/impl/random/wasi.h",
      "module/libhydrogen/impl/random/windows.h",
      "module/libhydrogen/impl/secretbox.h",
      "module/libhydrogen/impl/sign.h",
      "module/libhydrogen/impl/x25519.h",
      "module/pyfreetype.h",
      "module/renpy.h",
      "module/renpybidicore.c",
      "module/renpybidicore.h",
      "module/renpygl.h",
      "module/renpysound_core.c",
      "module/renpysound_core.h",
      "module/setup.py",
      "module/setuplib.py",
      "module/setuplib.pyc",
      "module/setuplib.pyo",
      "module/static.pyc",
      "module/steamcallbacks.h",
      "module/symbolic_matrix.py",
      "module/tinyfiledialogs/README.txt",
      "module/tinyfiledialogs/tinyfiledialogs.c",
      "module/tinyfiledialogs/tinyfiledialogs.h",
      "module/ttgsubtable.c",
      "module/ttgsubtable.h",
      "renpy.py",
      "renpy/__init__.py",
      "renpy/add_from.py",
      "renpy/arguments.py",
      "renpy/ast.py",
      "renpy/atl.py",
      "renpy/audio/__init__.py",
      "renpy/audio/audio.py",
      "renpy/audio/filter.pxd",
      "renpy/audio/filter.pyx",
      "renpy/audio/music.py",
      "renpy/audio/renpysound.pyx",
      "renpy/audio/sound.py",
      "renpy/audio/webaudio.py",
      "renpy/bootstrap.py",
      "renpy/character.py",
      "renpy/color.py",
      "renpy/common/000atl.rpy",
      "renpy/common/000namespaces.rpy",
      "renpy/common/000statements.rpy",
      "renpy/common/000window.rpy",
      "renpy/common/00accessibility.rpy",
      "renpy/common/00achievement.rpy",
      "renpy/common/00action_audio.rpy",
      "renpy/common/00action_control.rpy",
      "renpy/common/00action_data.rpy",
      "renpy/common/00action_file.rpy",
      "renpy/common/00action_menu.rpy",
      "renpy/common/00action_other.rpy",
      "renpy/common/00audio.rpy",
      "renpy/common/00barvalues.rpy",
      "renpy/common/00build.rpy",
      "renpy/common/00compat.rpy",
      "renpy/common/00console.rpy",
      "renpy/common/00db_ren.py",
      "renpy/common/00defaults.rpy",
      "renpy/common/00definitions.rpy",
      "renpy/common/00director.rpy",
      "renpy/common/00gallery.rpy",
      "renpy/common/00gamemenu.rpy",
      "renpy/common/00gamepad.rpy",
      "renpy/common/00gltest.rpy",
      "renpy/common/00gui.rpy",
      "renpy/common/00iap.rpy",
      "renpy/common/00icon.rpy",
      "renpy/common/00iconbutton.rpy",
      "renpy/common/00images.rpy",
      "renpy/common/00inputvalues.rpy",
      "renpy/common/00keymap.rpy",
      "renpy/common/00layeredimage.rpy",
      "renpy/common/00layout.rpy",
      "renpy/common/00library.rpy",
      "renpy/common/00matrixcolor.rpy",
      "renpy/common/00matrixtransform.rpy",
      "renpy/common/00mixers.rpy",
      "renpy/common/00mousedisplayable.rpy",
      "renpy/common/00musicroom.rpy",
      "renpy/common/00nvl_mode.rpy",
      "renpy/common/00obsolete.rpy",
      "renpy/common/00performance.rpy",
      "renpy/common/00placeholder.rpy",
      "renpy/common/00preferences.rpy",
      "renpy/common/00shaders.rpy",
      "renpy/common/00sideimage.rpy",
      "renpy/common/00speechbubble.rpy",
      "renpy/common/00splines.rpy",
      "renpy/common/00sshtransition_ren.py",
      "renpy/common/00start.rpy",
      "renpy/common/00steam.rpy",
      "renpy/common/00style.rpy",
      "renpy/common/00stylepreferences.rpy",
      "renpy/common/00sync.rpy",
      "renpy/common/00textshader_ren.py",
      "renpy/common/00themes.rpy",
      "renpy/common/00touchkeyboard.rpy",
      "renpy/common/00translation.rpy",
      "renpy/common/00updater.rpy",
      "renpy/common/00voice.rpy",
      "renpy/common/DejaVuSans-Bold.ttf",
      "renpy/common/DejaVuSans.ttf",
      "renpy/common/DejaVuSans.txt",
      "renpy/common/TwemojiCOLRv0.ttf",
      "renpy/common/TwemojiCOLRv0.txt",
      "renpy/common/_OpenDyslexic3-Regular.ttf",
      "renpy/common/_OpenDyslexic3-Regular.txt",
      "renpy/common/_audio.js",
      "renpy/common/_audio_filter.js",
      "renpy/common/_compat/gamemenu.rpym",
      "renpy/common/_compat/library.rpym",
      "renpy/common/_compat/mainmenu.rpym",
      "renpy/common/_compat/preferences.rpym",
      "renpy/common/_compat/styles.rpym",
      "renpy/common/_compat/themes.rpym",
      "renpy/common/_developer/developer.rpym",
      "renpy/common/_developer/inspector.rpym",
      "renpy/common/_dl_silence.ogg",
      "renpy/common/_errorhandling.rpym",
      "renpy/common/_layout/classic_joystick_preferences.rpym",
      "renpy/common/_layout/classic_load_save.rpym",
      "renpy/common/_layout/classic_main_menu.rpym",
      "renpy/common/_layout/classic_navigation.rpym",
      "renpy/common/_layout/classic_preferences.rpym",
      "renpy/common/_layout/classic_preferences_common.rpym",
      "renpy/common/_layout/classic_yesno_prompt.rpym",
      "renpy/common/_layout/grouped_main_menu.rpym",
      "renpy/common/_layout/grouped_navigation.rpym",
      "renpy/common/_layout/imagemap_common.rpym",
      "renpy/common/_layout/imagemap_load_save.rpym",
      "renpy/common/_layout/imagemap_main_menu.rpym",
      "renpy/common/_layout/imagemap_navigation.rpym",
      "renpy/common/_layout/imagemap_preferences.rpym",
      "renpy/common/_layout/imagemap_yesno_prompt.rpym",
      "renpy/common/_layout/one_column_preferences.rpym",
      "renpy/common/_layout/screen_joystick_preferences.rpym",
      "renpy/common/_layout/screen_load_save.rpym",
      "renpy/common/_layout/screen_main_menu.rpym",
      "renpy/common/_layout/screen_preferences.rpym",
      "renpy/common/_layout/screen_yesno_prompt.rpym",
      "renpy/common/_layout/scrolling_load_save.rpym",
      "renpy/common/_layout/two_column_preferences.rpym",
      "renpy/common/_missing_image.png",
      "renpy/common/_outline/bar.png",
      "renpy/common/_outline/circle.png",
      "renpy/common/_outline/vbar.png",
      "renpy/common/_placeholder/boy.png",
      "renpy/common/_placeholder/girl.png",
      "renpy/common/_roundrect/rr12.png",
      "renpy/common/_roundrect/rr12g.png",
      "renpy/common/_roundrect/rr6.png",
      "renpy/common/_roundrect/rr6g.png",
      "renpy/common/_roundrect/rrscrollbar.png",
      "renpy/common/_roundrect/rrscrollbar_thumb.png",
      "renpy/common/_roundrect/rrslider_empty.png",
      "renpy/common/_roundrect/rrslider_full.png",
      "renpy/common/_roundrect/rrslider_thumb.png",
      "renpy/common/_roundrect/rrvscrollbar.png",
      "renpy/common/_roundrect/rrvscrollbar_thumb.png",
      "renpy/common/_roundrect/rrvslider_empty.png",
      "renpy/common/_roundrect/rrvslider_full.png",
      "renpy/common/_roundrect/rrvslider_thumb.png",
      "renpy/common/_shaders.rpym",
      "renpy/common/_silence.ogg",
      "renpy/common/_theme_amie2/bar.png",
      "renpy/common/_theme_amie2/button.png",
      "renpy/common/_theme_amie2/button_hover.png",
      "renpy/common/_theme_amie2/frame.png",
      "renpy/common/_theme_amie2/hover_bar.png",
      "renpy/common/_theme_amie2/hover_frame.png",
      "renpy/common/_theme_austen/au_box.png",
      "renpy/common/_theme_austen/auscrollbar.png",
      "renpy/common/_theme_austen/auscrollbar_thumb.png",
      "renpy/common/_theme_austen/auslider_empty.png",
      "renpy/common/_theme_austen/auslider_full.png",
      "renpy/common/_theme_austen/auslider_thumb.png",
      "renpy/common/_theme_austen/auvscrollbar.png",
      "renpy/common/_theme_austen/auvscrollbar_thumb.png",
      "renpy/common/_theme_austen/auvslider_empty.png",
      "renpy/common/_theme_austen/auvslider_full.png",
      "renpy/common/_theme_austen/auvslider_thumb.png",
      "renpy/common/_theme_awt/OFL.txt",
      "renpy/common/_theme_awt/Quicksand-Bold.ttf",
      "renpy/common/_theme_awt/Quicksand-Regular.ttf",
      "renpy/common/_theme_awt/bar_full.png",
      "renpy/common/_theme_awt/bar_full_overlay.png",
      "renpy/common/_theme_awt/bar_thumb.gif",
      "renpy/common/_theme_awt/bar_thumb.png",
      "renpy/common/_theme_awt/bar_thumb_overlay.png",
      "renpy/common/_theme_awt/button.png",
      "renpy/common/_theme_awt/button_disabled_overlay.png",
      "renpy/common/_theme_awt/button_overlay.png",
      "renpy/common/_theme_awt/button_overlay_highlight.png",
      "renpy/common/_theme_awt/button_selected.png",
      "renpy/common/_theme_awt/button_selected_overlay.png",
      "renpy/common/_theme_awt/button_selected_overlay_highlight.png",
      "renpy/common/_theme_awt/frame.png",
      "renpy/common/_theme_awt/frame_overlay.png",
      "renpy/common/_theme_awt/radio_base.png",
      "renpy/common/_theme_awt/radio_base_overlay.png",
      "renpy/common/_theme_awt/radio_selected_hover.png",
      "renpy/common/_theme_awt/radio_unselected.png",
      "renpy/common/_theme_awt/radio_unselected_hover.png",
      "renpy/common/_theme_awt/scroller.png",
      "renpy/common/_theme_awt/scroller_overlay.png",
      "renpy/common/_theme_awt/slider_empty_all.png",
      "renpy/common/_theme_awt/slider_empty_overlay.png",
      "renpy/common/_theme_awt/slider_full.png",
      "renpy/common/_theme_awt/slider_full_overlay.png",
      "renpy/common/_theme_awt/v_bar_full.png",
      "renpy/common/_theme_awt/v_bar_full_overlay.png",
      "renpy/common/_theme_awt/v_bar_thumb.png",
      "renpy/common/_theme_awt/v_bar_thumb_overlay.png",
      "renpy/common/_theme_awt/vscroller.png",
      "renpy/common/_theme_awt/vscroller_overlay.png",
      "renpy/common/_theme_awt/vslider_empty_all.png",
      "renpy/common/_theme_awt/vslider_full.png",
      "renpy/common/_theme_awt/vslider_full_overlay.png",
      "renpy/common/_theme_awt/vthumb.png",
      "renpy/common/_theme_awt/vthumb_overlay.png",
      "renpy/common/_theme_bordered/br_box.png",
      "renpy/common/_theme_bordered/brscrollbar.png",
      "renpy/common/_theme_bordered/brscrollbar_thumb.png",
      "renpy/common/_theme_bordered/brslider_empty.png",
      "renpy/common/_theme_bordered/brslider_full.png",
      "renpy/common/_theme_bordered/brslider_thumb.png",
      "renpy/common/_theme_bordered/brvscrollbar.png",
      "renpy/common/_theme_bordered/brvscrollbar_thumb.png",
      "renpy/common/_theme_bordered/brvslider_empty.png",
      "renpy/common/_theme_bordered/brvslider_full.png",
      "renpy/common/_theme_bordered/brvslider_thumb.png",
      "renpy/common/_theme_crayon/cry_box.png",
      "renpy/common/_theme_crayon/cry_box2.png",
      "renpy/common/_theme_crayon/cryscrollbar.png",
      "renpy/common/_theme_crayon/cryscrollbar_thumb.png",
      "renpy/common/_theme_crayon/cryslider_empty.png",
      "renpy/common/_theme_crayon/cryslider_full.png",
      "renpy/common/_theme_crayon/cryslider_thumb.png",
      "renpy/common/_theme_crayon/cryvscrollbar.png",
      "renpy/common/_theme_crayon/cryvscrollbar_thumb.png",
      "renpy/common/_theme_crayon/cryvslider_empty.png",
      "renpy/common/_theme_crayon/cryvslider_full.png",
      "renpy/common/_theme_crayon/cryvslider_thumb.png",
      "renpy/common/_theme_crayon/rr12g.png",
      "renpy/common/_theme_diamond/d_box.png",
      "renpy/common/_theme_diamond/dscrollbar.png",
      "renpy/common/_theme_diamond/dscrollbar_thumb.png",
      "renpy/common/_theme_diamond/dslider_empty.png",
      "renpy/common/_theme_diamond/dslider_full.png",
      "renpy/common/_theme_diamond/dslider_thumb.png",
      "renpy/common/_theme_diamond/dvscrollbar.png",
      "renpy/common/_theme_diamond/dvscrollbar_thumb.png",
      "renpy/common/_theme_diamond/dvslider_empty.png",
      "renpy/common/_theme_diamond/dvslider_full.png",
      "renpy/common/_theme_diamond/dvslider_thumb.png",
      "renpy/common/_theme_glow/g_box.png",
      "renpy/common/_theme_glow/g_outline.png",
      "renpy/common/_theme_glow/gscrollbar.png",
      "renpy/common/_theme_glow/gscrollbar_thumb.png",
      "renpy/common/_theme_glow/gslider_empty.png",
      "renpy/common/_theme_glow/gslider_full.png",
      "renpy/common/_theme_glow/gslider_thumb.png",
      "renpy/common/_theme_glow/gvscrollbar.png",
      "renpy/common/_theme_glow/gvscrollbar_thumb.png",
      "renpy/common/_theme_glow/gvslider_empty.png",
      "renpy/common/_theme_glow/gvslider_full.png",
      "renpy/common/_theme_glow/gvslider_thumb.png",
      "renpy/common/_theme_marker/ink_box.png",
      "renpy/common/_theme_marker/inkscrollbar.png",
      "renpy/common/_theme_marker/inkscrollbar_thumb.png",
      "renpy/common/_theme_marker/inkslider_empty.png",
      "renpy/common/_theme_marker/inkslider_full.png",
      "renpy/common/_theme_marker/inkslider_thumb.png",
      "renpy/common/_theme_marker/inkvscrollbar.png",
      "renpy/common/_theme_marker/inkvscrollbar_thumb.png",
      "renpy/common/_theme_marker/inkvslider_empty.png",
      "renpy/common/_theme_marker/inkvslider_full.png",
      "renpy/common/_theme_marker/inkvslider_thumb.png",
      "renpy/common/_theme_regal/re_box.png",
      "renpy/common/_theme_regal/rescrollbar.png",
      "renpy/common/_theme_regal/rescrollbar_thumb.png",
      "renpy/common/_theme_regal/reslider_empty.png",
      "renpy/common/_theme_regal/reslider_full.png",
      "renpy/common/_theme_regal/reslider_thumb.png",
      "renpy/common/_theme_regal/revscrollbar.png",
      "renpy/common/_theme_regal/revscrollbar_thumb.png",
      "renpy/common/_theme_regal/revslider_empty.png",
      "renpy/common/_theme_regal/revslider_full.png",
      "renpy/common/_theme_regal/revslider_thumb.png",
      "renpy/common/_theme_threeD/th_box.png",
      "renpy/common/_theme_threeD/thscrollbar.png",
      "renpy/common/_theme_threeD/thscrollbar_thumb.png",
      "renpy/common/_theme_threeD/thslider_empty.png",
      "renpy/common/_theme_threeD/thslider_full.png",
      "renpy/common/_theme_threeD/thslider_thumb.png",
      "renpy/common/_theme_threeD/thvscrollbar.png",
      "renpy/common/_theme_threeD/thvscrollbar_thumb.png",
      "renpy/common/_theme_threeD/thvslider_empty.png",
      "renpy/common/_theme_threeD/thvslider_full.png",
      "renpy/common/_theme_threeD/thvslider_thumb.png",
      "renpy/common/_theme_tv/t_box.png",
      "renpy/common/_theme_tv/tscrollbar.png",
      "renpy/common/_theme_tv/tscrollbar_thumb.png",
      "renpy/common/_theme_tv/tslider_empty.png",
      "renpy/common/_theme_tv/tslider_full.png",
      "renpy/common/_theme_tv/tslider_thumb.png",
      "renpy/common/_theme_tv/tvscrollbar.png",
      "renpy/common/_theme_tv/tvscrollbar_thumb.png",
      "renpy/common/_theme_tv/tvslider_empty.png",
      "renpy/common/_theme_tv/tvslider_full.png",
      "renpy/common/_theme_tv/tvslider_thumb.png",
      "renpy/common/_transparent_tile.png",
      "renpy/common/_tv_unsafe.png",
      "renpy/common/blindstile.png",
      "renpy/common/gamecontrollerdb.txt",
      "renpy/common/squarestile.png",
      "renpy/compat/__init__.py",
      "renpy/compat/dictviews.pyx",
      "renpy/compat/fixes.py",
      "renpy/compat/pickle.py",
      "renpy/config.py",
      "renpy/curry.py",
      "renpy/debug.py",
      "renpy/defaultstore.py",
      "renpy/display/__init__.py",
      "renpy/display/accelerator.pyx",
      "renpy/display/anim.py",
      "renpy/display/behavior.py",
      "renpy/display/controller.py",
      "renpy/display/core.py",
      "renpy/display/displayable.py",
      "renpy/display/dragdrop.py",
      "renpy/display/emulator.py",
      "renpy/display/error.py",
      "renpy/display/focus.py",
      "renpy/display/gesture.py",
      "renpy/display/im.py",
      "renpy/display/image.py",
      "renpy/display/imagelike.py",
      "renpy/display/imagemap.py",
      "renpy/display/joystick.py",
      "renpy/display/layout.py",
      "renpy/display/matrix.pxd",
      "renpy/display/matrix.pyx",
      "renpy/display/matrix_functions.pxi",
      "renpy/display/minigame.py",
      "renpy/display/model.py",
      "renpy/display/module.py",
      "renpy/display/motion.py",
      "renpy/display/movetransition.py",
      "renpy/display/particle.py",
      "renpy/display/pgrender.py",
      "renpy/display/predict.py",
      "renpy/display/presplash.py",
      "renpy/display/quaternion.pyx",
      "renpy/display/render.pxd",
      "renpy/display/render.pyx",
      "renpy/display/scale.py",
      "renpy/display/scenelists.py",
      "renpy/display/screen.py",
      "renpy/display/swdraw.py",
      "renpy/display/transform.py",
      "renpy/display/transition.py",
      "renpy/display/tts.py",
      "renpy/display/video.py",
      "renpy/display/viewport.py",
      "renpy/dump.py",
      "renpy/easy.py",
      "renpy/editor.py",
      "renpy/encryption.pyx",
      "renpy/error.py",
      "renpy/execution.py",
      "renpy/exports/__init__.py",
      "renpy/exports/actionexports.py",
      "renpy/exports/commonexports.py",
      "renpy/exports/contextexports.py",
      "renpy/exports/debugexports.py",
      "renpy/exports/displayexports.py",
      "renpy/exports/fetchexports.py",
      "renpy/exports/inputexports.py",
      "renpy/exports/loaderexports.py",
      "renpy/exports/mediaexports.py",
      "renpy/exports/menuexports.py",
      "renpy/exports/persistentexports.py",
      "renpy/exports/platformexports.py",
      "renpy/exports/predictexports.py",
      "renpy/exports/restartexports.py",
      "renpy/exports/rollbackexports.py",
      "renpy/exports/sayexports.py",
      "renpy/exports/scriptexports.py",
      "renpy/exports/statementexports.py",
      "renpy/game.py",
      "renpy/gl/__init__.py",
      "renpy/gl/gldraw.pxd",
      "renpy/gl/gldraw.pyx",
      "renpy/gl/glenviron_shader.pyx",
      "renpy/gl/glfunctions.py",
      "renpy/gl/glrtt_copy.pyx",
      "renpy/gl/glrtt_fbo.pyx",
      "renpy/gl/gltexture.pxd",
      "renpy/gl/gltexture.pyx",
      "renpy/gl2/__init__.py",
      "renpy/gl2/gl2debug.py",
      "renpy/gl2/gl2draw.pxd",
      "renpy/gl2/gl2draw.pyx",
      "renpy/gl2/gl2functions.py",
      "renpy/gl2/gl2mesh.pxd",
      "renpy/gl2/gl2mesh.pyx",
      "renpy/gl2/gl2mesh2.pxd",
      "renpy/gl2/gl2mesh2.pyx",
      "renpy/gl2/gl2mesh3.pxd",
      "renpy/gl2/gl2mesh3.pyx",
      "renpy/gl2/gl2model.pxd",
      "renpy/gl2/gl2model.pyx",
      "renpy/gl2/gl2polygon.pxd",
      "renpy/gl2/gl2polygon.pyx",
      "renpy/gl2/gl2shader.pxd",
      "renpy/gl2/gl2shader.pyx",
      "renpy/gl2/gl2shadercache.py",
      "renpy/gl2/gl2texture.pxd",
      "renpy/gl2/gl2texture.pyx",
      "renpy/gl2/live2d.py",
      "renpy/gl2/live2dcsm.pxi",
      "renpy/gl2/live2dmodel.pyx",
      "renpy/gl2/live2dmotion.py",
      "renpy/lexer.py",
      "renpy/lexersupport.pyx",
      "renpy/lint.py",
      "renpy/loader.py",
      "renpy/loadsave.py",
      "renpy/log.py",
      "renpy/main.py",
      "renpy/memory.py",
      "renpy/minstore.py",
      "renpy/object.py",
      "renpy/parameter.py",
      "renpy/parser.py",
      "renpy/performance.py",
      "renpy/persistent.py",
      "renpy/preferences.py",
      "renpy/py2analysis.py",
      "renpy/py3analysis.py",
      "renpy/pyanalysis.py",
      "renpy/pydict.pyx",
      "renpy/python.py",
      "renpy/revertable.py",
      "renpy/rollback.py",
      "renpy/savelocation.py",
      "renpy/savetoken.py",
      "renpy/screenlang.py",
      "renpy/script.py",
      "renpy/scriptedit.py",
      "renpy/sl2/__init__.py",
      "renpy/sl2/slast.py",
      "renpy/sl2/sldisplayables.py",
      "renpy/sl2/slparser.py",
      "renpy/sl2/slproperties.py",
      "renpy/statements.py",
      "renpy/style.pxd",
      "renpy/style.pyx",
      "renpy/styledata/__init__.py",
      "renpy/styledata/styleclass.pyx",
      "renpy/styledata/stylesets.pyx",
      "renpy/styledata/styleutil.py",
      "renpy/substitutions.py",
      "renpy/test/__init__.py",
      "renpy/test/testast.py",
      "renpy/test/testexecution.py",
      "renpy/test/testfocus.py",
      "renpy/test/testkey.py",
      "renpy/test/testmouse.py",
      "renpy/test/testparser.py",
      "renpy/text/__init__.py",
      "renpy/text/emoji_trie.py",
      "renpy/text/extras.py",
      "renpy/text/font.py",
      "renpy/text/ftfont.pyx",
      "renpy/text/hbfont.pyx",
      "renpy/text/linebreak.pxi",
      "renpy/text/shader.py",
      "renpy/text/text.py",
      "renpy/text/textsupport.pxd",
      "renpy/text/textsupport.pyx",
      "renpy/text/texwrap.pyx",
      "renpy/translation/__init__.py",
      "renpy/translation/dialogue.py",
      "renpy/translation/extract.py",
      "renpy/translation/generation.py",
      "renpy/translation/merge.py",
      "renpy/translation/scanstrings.py",
      "renpy/uguu/__init__.py",
      "renpy/uguu/gl.pxd",
      "renpy/uguu/gl.pyx",
      "renpy/uguu/uguu.pyx",
      "renpy/ui.py",
      "renpy/update/__init__.py",
      "renpy/update/common.py",
      "renpy/update/download.py",
      "renpy/update/generate.py",
      "renpy/update/update.py",
      "renpy/util.py",
      "renpy/vc_version.py",
      "renpy/versions.py",
      "renpy/warp.py",
      "renpy/webloader.py",
      "sdk-fonts/SourceHanSansLite.ttf",
      "sphinx/build.sh",
      "sphinx/checks.py",
      "sphinx/game/cache/shaders.txt",
      "sphinx/game/doc.py",
      "sphinx/game/renpy_json.py",
      "sphinx/game/script.rpy",
      "sphinx/game/script.rpyc",
      "sphinx/game/shaderdoc.py",
      "sphinx/source/3dstage.rst",
      "sphinx/source/__pycache__/keywords.cpython-310.pyc",
      "sphinx/source/__pycache__/keywords.cpython-311.pyc",
      "sphinx/source/__pycache__/keywords.cpython-312.pyc",
      "sphinx/source/__pycache__/keywords.cpython-37.pyc",
      "sphinx/source/__pycache__/renpydoc.cpython-310.pyc",
      "sphinx/source/__pycache__/renpydoc.cpython-311.pyc",
      "sphinx/source/__pycache__/renpydoc.cpython-312.pyc",
      "sphinx/source/__pycache__/renpydoc.cpython-37.pyc",
      "sphinx/source/_static/custom.css",
      "sphinx/source/_static/environment.txt",
      "sphinx/source/_templates/layout.html",
      "sphinx/source/achievement.rst",
      "sphinx/source/android.rst",
      "sphinx/source/atl.rst",
      "sphinx/source/audio.rst",
      "sphinx/source/audio_filters.rst",
      "sphinx/source/axes_3d_1.png",
      "sphinx/source/axes_3d_2.png",
      "sphinx/source/axes_3d_3.png",
      "sphinx/source/bubble.rst",
      "sphinx/source/build.rst",
      "sphinx/source/cdd.rst",
      "sphinx/source/cds.rst",
      "sphinx/source/changelog.rst",
      "sphinx/source/changelog6.rst",
      "sphinx/source/character_callbacks.rst",
      "sphinx/source/chromeos.rst",
      "sphinx/source/cli.rst",
      "sphinx/source/color_class.rst",
      "sphinx/source/commandline.jpg",
      "sphinx/source/conditional.rst",
      "sphinx/source/conf.py",
      "sphinx/source/config.rst",
      "sphinx/source/credits.rst",
      "sphinx/source/custom_text_tags.rst",
      "sphinx/source/developer_tools.rst",
      "sphinx/source/dialogue.rst",
      "sphinx/source/director.rst",
      "sphinx/source/display_problems.rst",
      "sphinx/source/displayables.rst",
      "sphinx/source/displaying_images.rst",
      "sphinx/source/docutils.conf",
      "sphinx/source/downloader.rst",
      "sphinx/source/drag_drop.rst",
      "sphinx/source/editor.rst",
      "sphinx/source/environment_variables.rst",
      "sphinx/source/fetch.rst",
      "sphinx/source/file_python.rst",
      "sphinx/source/fill-translator-credits.py",
      "sphinx/source/frame_example.png",
      "sphinx/source/gesture.rst",
      "sphinx/source/gui.rst",
      "sphinx/source/gui/bar.jpg",
      "sphinx/source/gui/borders1.png",
      "sphinx/source/gui/borders2.png",
      "sphinx/source/gui/borders3.png",
      "sphinx/source/gui/button_preferences.jpg",
      "sphinx/source/gui/easy_choice_screen.jpg",
      "sphinx/source/gui/easy_game_menu.jpg",
      "sphinx/source/gui/easy_main_menu.jpg",
      "sphinx/source/gui/easy_say_screen.jpg",
      "sphinx/source/gui/frame_confirm.jpg",
      "sphinx/source/gui/history.png",
      "sphinx/source/gui/intermediate_dialogue.jpg",
      "sphinx/source/gui/ivory-off-white-paper-texture.jpg",
      "sphinx/source/gui/namebox.jpg",
      "sphinx/source/gui/nvl.jpg",
      "sphinx/source/gui/overlay_game_menu.jpg",
      "sphinx/source/gui/overlay_main_menu.jpg",
      "sphinx/source/gui/scrollbar_history.jpg",
      "sphinx/source/gui/skip_notify.jpg",
      "sphinx/source/gui/slider_preferences.jpg",
      "sphinx/source/gui/slot_save.jpg",
      "sphinx/source/gui/text.jpg",
      "sphinx/source/gui_advanced.rst",
      "sphinx/source/history.rst",
      "sphinx/source/iap.rst",
      "sphinx/source/im.rst",
      "sphinx/source/incompatible.rst",
      "sphinx/source/index.rst",
      "sphinx/source/input.rst",
      "sphinx/source/ios.rst",
      "sphinx/source/keymap.rst",
      "sphinx/source/keywords.py",
      "sphinx/source/keywords.pyc",
      "sphinx/source/label.rst",
      "sphinx/source/language_basics.rst",
      "sphinx/source/launcher.rst",
      "sphinx/source/layeredimage.rst",
      "sphinx/source/license.rst",
      "sphinx/source/lifecycle.rst",
      "sphinx/source/live2d.rst",
      "sphinx/source/logo.png",
      "sphinx/source/matrix.rst",
      "sphinx/source/matrixcolor.rst",
      "sphinx/source/menus.rst",
      "sphinx/source/model.rst",
      "sphinx/source/mouse.rst",
      "sphinx/source/movie.rst",
      "sphinx/source/multiple.rst",
      "sphinx/source/namespaces.rst",
      "sphinx/source/navbar-logo.png",
      "sphinx/source/nvl_mode.rst",
      "sphinx/source/oshs/game/ArchitectsDaughter.ttf",
      "sphinx/source/oshs/game/OFL.txt",
      "sphinx/source/oshs/game/cache/bytecode.rpyb",
      "sphinx/source/oshs/game/cache/pyanalysis.rpyb",
      "sphinx/source/oshs/game/cache/screens.rpyb",
      "sphinx/source/oshs/game/gui.rpy",
      "sphinx/source/oshs/game/gui.rpyc",
      "sphinx/source/oshs/game/gui/bar/bottom.png",
      "sphinx/source/oshs/game/gui/bar/left.png",
      "sphinx/source/oshs/game/gui/bar/right.png",
      "sphinx/source/oshs/game/gui/bar/top.png",
      "sphinx/source/oshs/game/gui/button/check_foreground.png",
      "sphinx/source/oshs/game/gui/button/check_selected_foreground.png",
      "sphinx/source/oshs/game/gui/button/choice_hover_background.png",
      "sphinx/source/oshs/game/gui/button/choice_idle_background.png",
      "sphinx/source/oshs/game/gui/button/hover_background.png",
      "sphinx/source/oshs/game/gui/button/idle_background.png",
      "sphinx/source/oshs/game/gui/button/quick_hover_background.png",
      "sphinx/source/oshs/game/gui/button/quick_idle_background.png",
      "sphinx/source/oshs/game/gui/button/radio_foreground.png",
      "sphinx/source/oshs/game/gui/button/radio_selected_foreground.png",
      "sphinx/source/oshs/game/gui/button/slot_hover_background.png",
      "sphinx/source/oshs/game/gui/button/slot_idle_background.png",
      "sphinx/source/oshs/game/gui/frame.png",
      "sphinx/source/oshs/game/gui/game_menu.png",
      "sphinx/source/oshs/game/gui/main_menu.png",
      "sphinx/source/oshs/game/gui/namebox.png",
      "sphinx/source/oshs/game/gui/notify.png",
      "sphinx/source/oshs/game/gui/nvl.png",
      "sphinx/source/oshs/game/gui/overlay/confirm.png",
      "sphinx/source/oshs/game/gui/overlay/game_menu.png",
      "sphinx/source/oshs/game/gui/overlay/main_menu.png",
      "sphinx/source/oshs/game/gui/phone/nvl.png",
      "sphinx/source/oshs/game/gui/phone/overlay/game_menu.png",
      "sphinx/source/oshs/game/gui/phone/overlay/main_menu.png",
      "sphinx/source/oshs/game/gui/phone/textbox.png",
      "sphinx/source/oshs/game/gui/scrollbar/horizontal_hover_bar.png",
      "sphinx/source/oshs/game/gui/scrollbar/horizontal_hover_thumb.png",
      "sphinx/source/oshs/game/gui/scrollbar/horizontal_idle_bar.png",
      "sphinx/source/oshs/game/gui/scrollbar/horizontal_idle_thumb.png",
      "sphinx/source/oshs/game/gui/scrollbar/vertical_hover_bar.png",
      "sphinx/source/oshs/game/gui/scrollbar/vertical_hover_thumb.png",
      "sphinx/source/oshs/game/gui/scrollbar/vertical_idle_bar.png",
      "sphinx/source/oshs/game/gui/scrollbar/vertical_idle_thumb.png",
      "sphinx/source/oshs/game/gui/skip.png",
      "sphinx/source/oshs/game/gui/slider/horizontal_hover_bar.png",
      "sphinx/source/oshs/game/gui/slider/horizontal_hover_thumb.png",
      "sphinx/source/oshs/game/gui/slider/horizontal_idle_bar.png",
      "sphinx/source/oshs/game/gui/slider/horizontal_idle_thumb.png",
      "sphinx/source/oshs/game/gui/slider/vertical_hover_bar.png",
      "sphinx/source/oshs/game/gui/slider/vertical_hover_thumb.png",
      "sphinx/source/oshs/game/gui/slider/vertical_idle_bar.png",
      "sphinx/source/oshs/game/gui/slider/vertical_idle_thumb.png",
      "sphinx/source/oshs/game/gui/textbox.png",
      "sphinx/source/oshs/game/gui/window_icon.png",
      "sphinx/source/oshs/game/images/borders.png",
      "sphinx/source/oshs/game/images/eileen happy.png",
      "sphinx/source/oshs/game/options.rpy",
      "sphinx/source/oshs/game/options.rpyc",
      "sphinx/source/oshs/game/sample_audio.opus",
      "sphinx/source/oshs/game/screens.rpy",
      "sphinx/source/oshs/game/screens.rpyc",
      "sphinx/source/oshs/game/script.rpy",
      "sphinx/source/oshs/game/script.rpyc",
      "sphinx/source/other.rst",
      "sphinx/source/persistent.rst",
      "sphinx/source/preferences.rst",
      "sphinx/source/presplash/presplash_background_1.png",
      "sphinx/source/presplash/presplash_background_2.png",
      "sphinx/source/presplash/presplash_foreground_1.png",
      "sphinx/source/presplash/presplash_foreground_2.png",
      "sphinx/source/problems.rst",
      "sphinx/source/python.rst",
      "sphinx/source/quickstart.rst",
      "sphinx/source/quickstart/color.png",
      "sphinx/source/quickstart/launcher.png",
      "sphinx/source/quickstart/project_name.png",
      "sphinx/source/quickstart/resolution.png",
      "sphinx/source/raspi.rst",
      "sphinx/source/ren_py.rst",
      "sphinx/source/renpydoc.py",
      "sphinx/source/renpydoc.pyc",
      "sphinx/source/reserved.rst",
      "sphinx/source/rooms.rst",
      "sphinx/source/save_load_rollback.rst",
      "sphinx/source/screen_actions.rst",
      "sphinx/source/screen_optimization.rst",
      "sphinx/source/screen_python.rst",
      "sphinx/source/screen_special.rst",
      "sphinx/source/screens.rst",
      "sphinx/source/screenshot.rst",
      "sphinx/source/security.rst",
      "sphinx/source/self_voicing.rst",
      "sphinx/source/shader_parts.rst",
      "sphinx/source/side_image.rst",
      "sphinx/source/skins.rst",
      "sphinx/source/splashscreen_presplash.rst",
      "sphinx/source/sponsors.html",
      "sphinx/source/sponsors.rst",
      "sphinx/source/sprites.rst",
      "sphinx/source/statement_equivalents.rst",
      "sphinx/source/store_variables.rst",
      "sphinx/source/style.rst",
      "sphinx/source/style_properties.rst",
      "sphinx/source/template_projects.rst",
      "sphinx/source/text.rst",
      "sphinx/source/textshaders.rst",
      "sphinx/source/thequestion.rst",
      "sphinx/source/thequestion.txt",
      "sphinx/source/thequestion_nvl.rst",
      "sphinx/source/trans_trans_python.rst",
      "sphinx/source/transform_properties.rst",
      "sphinx/source/transforms.rst",
      "sphinx/source/transitions.rst",
      "sphinx/source/translating_renpy.rst",
      "sphinx/source/translation.rst",
      "sphinx/source/updater.rst",
      "sphinx/source/voice.rst",
      "sphinx/source/web.rst",
      "the_question/android-icon_background.png",
      "the_question/android-icon_foreground.png",
      "the_question/android.json",
      "the_question/game/gui.rpy",
      "the_question/game/gui/bar/bottom.png",
      "the_question/game/gui/bar/left.png",
      "the_question/game/gui/bar/right.png",
      "the_question/game/gui/bar/top.png",
      "the_question/game/gui/button/check_foreground.png",
      "the_question/game/gui/button/check_selected_foreground.png",
      "the_question/game/gui/button/choice_hover_background.png",
      "the_question/game/gui/button/choice_idle_background.png",
      "the_question/game/gui/button/hover_background.png",
      "the_question/game/gui/button/idle_background.png",
      "the_question/game/gui/button/quick_hover_background.png",
      "the_question/game/gui/button/quick_idle_background.png",
      "the_question/game/gui/button/radio_foreground.png",
      "the_question/game/gui/button/radio_selected_foreground.png",
      "the_question/game/gui/button/slot_hover_background.png",
      "the_question/game/gui/button/slot_idle_background.png",
      "the_question/game/gui/frame.png",
      "the_question/game/gui/game_menu.png",
      "the_question/game/gui/main_menu.png",
      "the_question/game/gui/namebox.png",
      "the_question/game/gui/notify.png",
      "the_question/game/gui/nvl.png",
      "the_question/game/gui/overlay/confirm.png",
      "the_question/game/gui/overlay/game_menu.png",
      "the_question/game/gui/overlay/main_menu.png",
      "the_question/game/gui/phone/nvl.png",
      "the_question/game/gui/phone/overlay/game_menu.png",
      "the_question/game/gui/phone/overlay/main_menu.png",
      "the_question/game/gui/phone/textbox.png",
      "the_question/game/gui/scrollbar/horizontal_hover_bar.png",
      "the_question/game/gui/scrollbar/horizontal_hover_thumb.png",
      "the_question/game/gui/scrollbar/horizontal_idle_bar.png",
      "the_question/game/gui/scrollbar/horizontal_idle_thumb.png",
      "the_question/game/gui/scrollbar/vertical_hover_bar.png",
      "the_question/game/gui/scrollbar/vertical_hover_thumb.png",
      "the_question/game/gui/scrollbar/vertical_idle_bar.png",
      "the_question/game/gui/scrollbar/vertical_idle_thumb.png",
      "the_question/game/gui/skip.png",
      "the_question/game/gui/slider/horizontal_hover_bar.png",
      "the_question/game/gui/slider/horizontal_hover_thumb.png",
      "the_question/game/gui/slider/horizontal_idle_bar.png",
      "the_question/game/gui/slider/horizontal_idle_thumb.png",
      "the_question/game/gui/slider/vertical_hover_bar.png",
      "the_question/game/gui/slider/vertical_hover_thumb.png",
      "the_question/game/gui/slider/vertical_idle_bar.png",
      "the_question/game/gui/slider/vertical_idle_thumb.png",
      "the_question/game/gui/textbox.png",
      "the_question/game/gui/window_icon.png",
      "the_question/game/illurock.opus",
      "the_question/game/images/bg club.jpg",
      "the_question/game/images/bg lecturehall.jpg",
      "the_question/game/images/bg meadow.jpg",
      "the_question/game/images/bg uni.jpg",
      "the_question/game/images/sylvie blue giggle.png",
      "the_question/game/images/sylvie blue normal.png",
      "the_question/game/images/sylvie blue smile.png",
      "the_question/game/images/sylvie blue surprised.png",
      "the_question/game/images/sylvie green giggle.png",
      "the_question/game/images/sylvie green normal.png",
      "the_question/game/images/sylvie green smile.png",
      "the_question/game/images/sylvie green surprised.png",
      "the_question/game/options.rpy",
      "the_question/game/screens.rpy",
      "the_question/game/script.rpy",
      "the_question/game/tl/None/common.rpym",
      "the_question/game/tl/czech/common.rpy",
      "the_question/game/tl/czech/options.rpy",
      "the_question/game/tl/czech/screens.rpy",
      "the_question/game/tl/czech/script.rpy",
      "the_question/game/tl/danish/common.rpy",
      "the_question/game/tl/danish/options.rpy",
      "the_question/game/tl/danish/screens.rpy",
      "the_question/game/tl/danish/script.rpy",
      "the_question/game/tl/french/common.rpy",
      "the_question/game/tl/french/options.rpy",
      "the_question/game/tl/french/screens.rpy",
      "the_question/game/tl/french/script.rpy",
      "the_question/game/tl/italian/common.rpy",
      "the_question/game/tl/italian/options.rpy",
      "the_question/game/tl/italian/screens.rpy",
      "the_question/game/tl/italian/script.rpy",
      "the_question/game/tl/japanese/common.rpy",
      "the_question/game/tl/japanese/options.rpy",
      "the_question/game/tl/japanese/screens.rpy",
      "the_question/game/tl/japanese/script.rpy",
      "the_question/game/tl/korean/common.rpy",
      "the_question/game/tl/korean/options.rpy",
      "the_question/game/tl/korean/screens.rpy",
      "the_question/game/tl/korean/script.rpy",
      "the_question/game/tl/malay/common.rpy",
      "the_question/game/tl/malay/options.rpy",
      "the_question/game/tl/malay/screens.rpy",
      "the_question/game/tl/malay/script.rpy",
      "the_question/game/tl/russian/common.rpy",
      "the_question/game/tl/russian/options.rpy",
      "the_question/game/tl/russian/screens.rpy",
      "the_question/game/tl/russian/script.rpy",
      "the_question/game/tl/schinese/common.rpy",
      "the_question/game/tl/schinese/options.rpy",
      "the_question/game/tl/schinese/screens.rpy",
      "the_question/game/tl/schinese/script.rpy",
      "the_question/game/tl/spanish/common.rpy",
      "the_question/game/tl/spanish/options.rpy",
      "the_question/game/tl/spanish/screens.rpy",
      "the_question/game/tl/spanish/script.rpy",
      "the_question/game/tl/tchinese/options.rpy",
      "the_question/game/tl/tchinese/screens.rpy",
      "the_question/game/tl/tchinese/script.rpy",
      "the_question/game/tl/ukrainian/common.rpy",
      "the_question/game/tl/ukrainian/options.rpy",
      "the_question/game/tl/ukrainian/screens.rpy",
      "the_question/game/tl/ukrainian/script.rpy",
      "the_question/icon.icns",
      "the_question/icon.ico",
      "the_question/ios-icon.png",
      "the_question/ios-launchimage.png",
      "the_question/progressive_download.txt",
      "the_question/project.json",
      "tutorial/game/01director_support.rpy",
      "tutorial/game/01example.rpy",
      "tutorial/game/examples.rpy",
      "tutorial/game/exclamation.png",
      "tutorial/game/gui.rpy",
      "tutorial/game/gui/bar/bottom.png",
      "tutorial/game/gui/bar/left.png",
      "tutorial/game/gui/bar/right.png",
      "tutorial/game/gui/bar/top.png",
      "tutorial/game/gui/button/check_foreground.png",
      "tutorial/game/gui/button/check_selected_foreground.png",
      "tutorial/game/gui/button/choice_hover_background.png",
      "tutorial/game/gui/button/choice_idle_background.png",
      "tutorial/game/gui/button/hover_background.png",
      "tutorial/game/gui/button/idle_background.png",
      "tutorial/game/gui/button/quick_hover_background.png",
      "tutorial/game/gui/button/quick_idle_background.png",
      "tutorial/game/gui/button/radio_foreground.png",
      "tutorial/game/gui/button/radio_selected_foreground.png",
      "tutorial/game/gui/button/slot_hover_background.png",
      "tutorial/game/gui/button/slot_idle_background.png",
      "tutorial/game/gui/frame.png",
      "tutorial/game/gui/main_menu.jpg",
      "tutorial/game/gui/mouse0.png",
      "tutorial/game/gui/mouse1.png",
      "tutorial/game/gui/mouse2.png",
      "tutorial/game/gui/namebox.png",
      "tutorial/game/gui/notify.png",
      "tutorial/game/gui/nvl.png",
      "tutorial/game/gui/overlay/confirm.png",
      "tutorial/game/gui/overlay/game_menu.png",
      "tutorial/game/gui/overlay/main_menu.png",
      "tutorial/game/gui/phone/nvl.png",
      "tutorial/game/gui/phone/overlay/game_menu.png",
      "tutorial/game/gui/phone/overlay/main_menu.png",
      "tutorial/game/gui/phone/textbox.png",
      "tutorial/game/gui/scrollbar/horizontal_hover_bar.png",
      "tutorial/game/gui/scrollbar/horizontal_hover_thumb.png",
      "tutorial/game/gui/scrollbar/horizontal_idle_bar.png",
      "tutorial/game/gui/scrollbar/horizontal_idle_thumb.png",
      "tutorial/game/gui/scrollbar/vertical_hover_bar.png",
      "tutorial/game/gui/scrollbar/vertical_hover_thumb.png",
      "tutorial/game/gui/scrollbar/vertical_idle_bar.png",
      "tutorial/game/gui/scrollbar/vertical_idle_thumb.png",
      "tutorial/game/gui/skip.png",
      "tutorial/game/gui/slider/horizontal_hover_bar.png",
      "tutorial/game/gui/slider/horizontal_hover_thumb.png",
      "tutorial/game/gui/slider/horizontal_idle_bar.png",
      "tutorial/game/gui/slider/horizontal_idle_thumb.png",
      "tutorial/game/gui/slider/vertical_hover_bar.png",
      "tutorial/game/gui/slider/vertical_hover_thumb.png",
      "tutorial/game/gui/slider/vertical_idle_bar.png",
      "tutorial/game/gui/slider/vertical_idle_thumb.png",
      "tutorial/game/gui/startextbox.png",
      "tutorial/game/gui/textbox.png",
      "tutorial/game/gui/window_icon.png",
      "tutorial/game/images/bar empty hover.png",
      "tutorial/game/images/bar empty idle.png",
      "tutorial/game/images/bar full hover.png",
      "tutorial/game/images/bar full idle.png",
      "tutorial/game/images/bar thumb hover.png",
      "tutorial/game/images/bar thumb idle.png",
      "tutorial/game/images/bg cave.jpg",
      "tutorial/game/images/bg panorama.webp",
      "tutorial/game/images/bg pong field.png",
      "tutorial/game/images/bg washington.jpg",
      "tutorial/game/images/bg whitehouse.jpg",
      "tutorial/game/images/button glossy hover.png",
      "tutorial/game/images/button glossy idle.png",
      "tutorial/game/images/check_foreground.png",
      "tutorial/game/images/check_selected_foreground.png",
      "tutorial/game/images/concert1.png",
      "tutorial/game/images/concert2.png",
      "tutorial/game/images/concert3.png",
      "tutorial/game/images/eileen concerned.png",
      "tutorial/game/images/eileen happy.png",
      "tutorial/game/images/eileen vhappy.png",
      "tutorial/game/images/hover_background.png",
      "tutorial/game/images/idle_background.png",
      "tutorial/game/images/imagedissolve circleiris.png",
      "tutorial/game/images/imagedissolve circlewipe.png",
      "tutorial/game/images/imagedissolve dream.png",
      "tutorial/game/images/imagedissolve teleport.png",
      "tutorial/game/images/imagemap ground.png",
      "tutorial/game/images/imagemap hover.png",
      "tutorial/game/images/imagemap volume hover.png",
      "tutorial/game/images/imagemap volume idle.png",
      "tutorial/game/images/imagemap volume insensitive.png",
      "tutorial/game/images/imagemap volume selected_hover.png",
      "tutorial/game/images/imagemap volume selected_idle.png",
      "tutorial/game/images/launcher distribute.png",
      "tutorial/game/images/launcher step1.webp",
      "tutorial/game/images/launcher step2.webp",
      "tutorial/game/images/launcher step3.webp",
      "tutorial/game/images/launcher step4.webp",
      "tutorial/game/images/launcher step5.webp",
      "tutorial/game/images/launcher translate.png",
      "tutorial/game/images/logo base.png",
      "tutorial/game/images/logo bw.png",
      "tutorial/game/images/logo solid.png",
      "tutorial/game/images/lucy happy.png",
      "tutorial/game/images/lucy mad.png",
      "tutorial/game/images/magic.png",
      "tutorial/game/images/ninepatch paper.png",
      "tutorial/game/images/ninepatch.png",
      "tutorial/game/images/popup hrpprefs.png",
      "tutorial/game/images/popup prefs.png",
      "tutorial/game/images/popup save.png",
      "tutorial/game/images/spotlight.png",
      "tutorial/game/indepth_character.rpy",
      "tutorial/game/indepth_displayables.rpy",
      "tutorial/game/indepth_minigame.rpy",
      "tutorial/game/indepth_style.rpy",
      "tutorial/game/indepth_text.rpy",
      "tutorial/game/indepth_transitions.rpy",
      "tutorial/game/indepth_translations.rpy",
      "tutorial/game/keywords.py",
      "tutorial/game/oa4_launch.webm",
      "tutorial/game/options.rpy",
      "tutorial/game/pong_beep.opus",
      "tutorial/game/pong_boop.opus",
      "tutorial/game/punch.opus",
      "tutorial/game/renpyallstars.ogg",
      "tutorial/game/screens.rpy",
      "tutorial/game/script.rpy",
      "tutorial/game/sunflower-slow-drag.ogg",
      "tutorial/game/target1.png",
      "tutorial/game/target2.png",
      "tutorial/game/testcases.rpy",
      "tutorial/game/tl/None/common.rpym",
      "tutorial/game/tl/french/01example.rpy",
      "tutorial/game/tl/french/common.rpy",
      "tutorial/game/tl/french/indepth_character.rpy",
      "tutorial/game/tl/french/indepth_displayables.rpy",
      "tutorial/game/tl/french/indepth_minigame.rpy",
      "tutorial/game/tl/french/indepth_style.rpy",
      "tutorial/game/tl/french/indepth_text.rpy",
      "tutorial/game/tl/french/indepth_transitions.rpy",
      "tutorial/game/tl/french/indepth_translations.rpy",
      "tutorial/game/tl/french/options.rpy",
      "tutorial/game/tl/french/screens.rpy",
      "tutorial/game/tl/french/script.rpy",
      "tutorial/game/tl/french/tutorial_atl.rpy",
      "tutorial/game/tl/french/tutorial_director.rpy",
      "tutorial/game/tl/french/tutorial_distribute.rpy",
      "tutorial/game/tl/french/tutorial_nvlmode.rpy",
      "tutorial/game/tl/french/tutorial_playing.rpy",
      "tutorial/game/tl/french/tutorial_quickstart.rpy",
      "tutorial/game/tl/french/tutorial_screen_displayables.rpy",
      "tutorial/game/tl/french/tutorial_screens.rpy",
      "tutorial/game/tl/french/tutorial_video.rpy",
      "tutorial/game/tl/japanese/01example.rpy",
      "tutorial/game/tl/japanese/common.rpy",
      "tutorial/game/tl/japanese/indepth_character.rpy",
      "tutorial/game/tl/japanese/indepth_displayables.rpy",
      "tutorial/game/tl/japanese/indepth_minigame.rpy",
      "tutorial/game/tl/japanese/indepth_style.rpy",
      "tutorial/game/tl/japanese/indepth_text.rpy",
      "tutorial/game/tl/japanese/indepth_transitions.rpy",
      "tutorial/game/tl/japanese/indepth_translations.rpy",
      "tutorial/game/tl/japanese/options.rpy",
      "tutorial/game/tl/japanese/screens.rpy",
      "tutorial/game/tl/japanese/script.rpy",
      "tutorial/game/tl/japanese/style.rpy",
      "tutorial/game/tl/japanese/tutorial_atl.rpy",
      "tutorial/game/tl/japanese/tutorial_director.rpy",
      "tutorial/game/tl/japanese/tutorial_distribute.rpy",
      "tutorial/game/tl/japanese/tutorial_nvlmode.rpy",
      "tutorial/game/tl/japanese/tutorial_playing.rpy",
      "tutorial/game/tl/japanese/tutorial_quickstart.rpy",
      "tutorial/game/tl/japanese/tutorial_screen_displayables.rpy",
      "tutorial/game/tl/japanese/tutorial_screens.rpy",
      "tutorial/game/tl/japanese/tutorial_video.rpy",
      "tutorial/game/tl/korean/01example.rpy",
      "tutorial/game/tl/korean/common.rpy",
      "tutorial/game/tl/korean/indepth_character.rpy",
      "tutorial/game/tl/korean/indepth_displayables.rpy",
      "tutorial/game/tl/korean/indepth_minigame.rpy",
      "tutorial/game/tl/korean/indepth_style.rpy",
      "tutorial/game/tl/korean/indepth_text.rpy",
      "tutorial/game/tl/korean/indepth_transitions.rpy",
      "tutorial/game/tl/korean/indepth_translations.rpy",
      "tutorial/game/tl/korean/options.rpy",
      "tutorial/game/tl/korean/screens.rpy",
      "tutorial/game/tl/korean/script.rpy",
      "tutorial/game/tl/korean/tutorial_atl.rpy",
      "tutorial/game/tl/korean/tutorial_director.rpy",
      "tutorial/game/tl/korean/tutorial_distribute.rpy",
      "tutorial/game/tl/korean/tutorial_nvlmode.rpy",
      "tutorial/game/tl/korean/tutorial_playing.rpy",
      "tutorial/game/tl/korean/tutorial_quickstart.rpy",
      "tutorial/game/tl/korean/tutorial_screen_displayables.rpy",
      "tutorial/game/tl/korean/tutorial_screens.rpy",
      "tutorial/game/tl/korean/tutorial_video.rpy",
      "tutorial/game/tl/piglatin/01example.rpy",
      "tutorial/game/tl/piglatin/common.rpy",
      "tutorial/game/tl/piglatin/indepth_character.rpy",
      "tutorial/game/tl/piglatin/indepth_displayables.rpy",
      "tutorial/game/tl/piglatin/indepth_minigame.rpy",
      "tutorial/game/tl/piglatin/indepth_style.rpy",
      "tutorial/game/tl/piglatin/indepth_text.rpy",
      "tutorial/game/tl/piglatin/indepth_transitions.rpy",
      "tutorial/game/tl/piglatin/indepth_translations.rpy",
      "tutorial/game/tl/piglatin/options.rpy",
      "tutorial/game/tl/piglatin/screens.rpy",
      "tutorial/game/tl/piglatin/script.rpy",
      "tutorial/game/tl/piglatin/tutorial_atl.rpy",
      "tutorial/game/tl/piglatin/tutorial_director.rpy",
      "tutorial/game/tl/piglatin/tutorial_distribute.rpy",
      "tutorial/game/tl/piglatin/tutorial_nvlmode.rpy",
      "tutorial/game/tl/piglatin/tutorial_playing.rpy",
      "tutorial/game/tl/piglatin/tutorial_quickstart.rpy",
      "tutorial/game/tl/piglatin/tutorial_screen_displayables.rpy",
      "tutorial/game/tl/piglatin/tutorial_screens.rpy",
      "tutorial/game/tl/piglatin/tutorial_video.rpy",
      "tutorial/game/tl/russian/01example.rpy",
      "tutorial/game/tl/russian/common.rpy",
      "tutorial/game/tl/russian/indepth_character.rpy",
      "tutorial/game/tl/russian/indepth_displayables.rpy",
      "tutorial/game/tl/russian/indepth_minigame.rpy",
      "tutorial/game/tl/russian/indepth_style.rpy",
      "tutorial/game/tl/russian/indepth_text.rpy",
      "tutorial/game/tl/russian/indepth_transitions.rpy",
      "tutorial/game/tl/russian/indepth_translations.rpy",
      "tutorial/game/tl/russian/options.rpy",
      "tutorial/game/tl/russian/screens.rpy",
      "tutorial/game/tl/russian/script.rpy",
      "tutorial/game/tl/russian/tutorial_atl.rpy",
      "tutorial/game/tl/russian/tutorial_director.rpy",
      "tutorial/game/tl/russian/tutorial_distribute.rpy",
      "tutorial/game/tl/russian/tutorial_nvlmode.rpy",
      "tutorial/game/tl/russian/tutorial_playing.rpy",
      "tutorial/game/tl/russian/tutorial_quickstart.rpy",
      "tutorial/game/tl/russian/tutorial_screen_displayables.rpy",
      "tutorial/game/tl/russian/tutorial_screens.rpy",
      "tutorial/game/tl/russian/tutorial_video.rpy",
      "tutorial/game/tl/schinese/01example.rpy",
      "tutorial/game/tl/schinese/common.rpy",
      "tutorial/game/tl/schinese/indepth_character.rpy",
      "tutorial/game/tl/schinese/indepth_displayables.rpy",
      "tutorial/game/tl/schinese/indepth_minigame.rpy",
      "tutorial/game/tl/schinese/indepth_style.rpy",
      "tutorial/game/tl/schinese/indepth_text.rpy",
      "tutorial/game/tl/schinese/indepth_transitions.rpy",
      "tutorial/game/tl/schinese/indepth_translations.rpy",
      "tutorial/game/tl/schinese/options.rpy",
      "tutorial/game/tl/schinese/screens.rpy",
      "tutorial/game/tl/schinese/script.rpy",
      "tutorial/game/tl/schinese/style.rpy",
      "tutorial/game/tl/schinese/tutorial_atl.rpy",
      "tutorial/game/tl/schinese/tutorial_director.rpy",
      "tutorial/game/tl/schinese/tutorial_distribute.rpy",
      "tutorial/game/tl/schinese/tutorial_nvlmode.rpy",
      "tutorial/game/tl/schinese/tutorial_playing.rpy",
      "tutorial/game/tl/schinese/tutorial_quickstart.rpy",
      "tutorial/game/tl/schinese/tutorial_screen_displayables.rpy",
      "tutorial/game/tl/schinese/tutorial_screens.rpy",
      "tutorial/game/tl/schinese/tutorial_video.rpy",
      "tutorial/game/tl/spanish/01example.rpy",
      "tutorial/game/tl/spanish/common.rpy",
      "tutorial/game/tl/spanish/indepth_character.rpy",
      "tutorial/game/tl/spanish/indepth_displayables.rpy",
      "tutorial/game/tl/spanish/indepth_minigame.rpy",
      "tutorial/game/tl/spanish/indepth_style.rpy",
      "tutorial/game/tl/spanish/indepth_text.rpy",
      "tutorial/game/tl/spanish/indepth_transitions.rpy",
      "tutorial/game/tl/spanish/indepth_translations.rpy",
      "tutorial/game/tl/spanish/options.rpy",
      "tutorial/game/tl/spanish/screens.rpy",
      "tutorial/game/tl/spanish/script.rpy",
      "tutorial/game/tl/spanish/tutorial_atl.rpy",
      "tutorial/game/tl/spanish/tutorial_director.rpy",
      "tutorial/game/tl/spanish/tutorial_distribute.rpy",
      "tutorial/game/tl/spanish/tutorial_nvlmode.rpy",
      "tutorial/game/tl/spanish/tutorial_playing.rpy",
      "tutorial/game/tl/spanish/tutorial_quickstart.rpy",
      "tutorial/game/tl/spanish/tutorial_screen_displayables.rpy",
      "tutorial/game/tl/spanish/tutorial_screens.rpy",
      "tutorial/game/tl/spanish/tutorial_video.rpy",
      "tutorial/game/tl/ukrainian/01example.rpy",
      "tutorial/game/tl/ukrainian/common.rpy",
      "tutorial/game/tl/ukrainian/indepth_character.rpy",
      "tutorial/game/tl/ukrainian/indepth_displayables.rpy",
      "tutorial/game/tl/ukrainian/indepth_minigame.rpy",
      "tutorial/game/tl/ukrainian/indepth_style.rpy",
      "tutorial/game/tl/ukrainian/indepth_text.rpy",
      "tutorial/game/tl/ukrainian/indepth_transitions.rpy",
      "tutorial/game/tl/ukrainian/indepth_translations.rpy",
      "tutorial/game/tl/ukrainian/options.rpy",
      "tutorial/game/tl/ukrainian/screens.rpy",
      "tutorial/game/tl/ukrainian/script.rpy",
      "tutorial/game/tl/ukrainian/tutorial_atl.rpy",
      "tutorial/game/tl/ukrainian/tutorial_director.rpy",
      "tutorial/game/tl/ukrainian/tutorial_distribute.rpy",
      "tutorial/game/tl/ukrainian/tutorial_nvlmode.rpy",
      "tutorial/game/tl/ukrainian/tutorial_playing.rpy",
      "tutorial/game/tl/ukrainian/tutorial_quickstart.rpy",
      "tutorial/game/tl/ukrainian/tutorial_screen_displayables.rpy",
      "tutorial/game/tl/ukrainian/tutorial_screens.rpy",
      "tutorial/game/tl/ukrainian/tutorial_video.rpy",
      "tutorial/game/tower_clock.ogg",
      "tutorial/game/tutorial_atl.rpy",
      "tutorial/game/tutorial_director.rpy",
      "tutorial/game/tutorial_director.rpym",
      "tutorial/game/tutorial_distribute.rpy",
      "tutorial/game/tutorial_nvlmode.rpy",
      "tutorial/game/tutorial_playing.rpy",
      "tutorial/game/tutorial_quickstart.rpy",
      "tutorial/game/tutorial_screen_displayables.rpy",
      "tutorial/game/tutorial_screens.rpy",
      "tutorial/game/tutorial_video.rpy",
      "tutorial/progressive_download.txt",
      "tutorial/project.json"
    ],
    "directories": [
      "doc",
      "doc/_images",
      "doc/_static",
      "doc/_static/bootstrap-2.3.2",
      "doc/_static/bootstrap-2.3.2/css",
      "doc/_static/bootstrap-2.3.2/img",
      "doc/_static/bootstrap-2.3.2/js",
      "doc/_static/bootstrap-3.3.6",
      "doc/_static/bootstrap-3.3.6/css",
      "doc/_static/bootstrap-3.3.6/fonts",
      "doc/_static/bootstrap-3.3.6/js",
      "doc/_static/bootstrap-3.4.1",
      "doc/_static/bootstrap-3.4.1/css",
      "doc/_static/bootstrap-3.4.1/fonts",
      "doc/_static/bootstrap-3.4.1/js",
      "doc/_static/bootswatch-2.3.2",
      "doc/_static/bootswatch-2.3.2/amelia",
      "doc/_static/bootswatch-2.3.2/cerulean",
      "doc/_static/bootswatch-2.3.2/cosmo",
      "doc/_static/bootswatch-2.3.2/cyborg",
      "doc/_static/bootswatch-2.3.2/flatly",
      "doc/_static/bootswatch-2.3.2/img",
      "doc/_static/bootswatch-2.3.2/journal",
      "doc/_static/bootswatch-2.3.2/readable",
      "doc/_static/bootswatch-2.3.2/simplex",
      "doc/_static/bootswatch-2.3.2/slate",
      "doc/_static/bootswatch-2.3.2/spacelab",
      "doc/_static/bootswatch-2.3.2/spruce",
      "doc/_static/bootswatch-2.3.2/superhero",
      "doc/_static/bootswatch-2.3.2/united",
      "doc/_static/bootswatch-3.3.6",
      "doc/_static/bootswatch-3.3.6/cerulean",
      "doc/_static/bootswatch-3.3.6/cosmo",
      "doc/_static/bootswatch-3.3.6/custom",
      "doc/_static/bootswatch-3.3.6/cyborg",
      "doc/_static/bootswatch-3.3.6/darkly",
      "doc/_static/bootswatch-3.3.6/flatly",
      "doc/_static/bootswatch-3.3.6/fonts",
      "doc/_static/bootswatch-3.3.6/journal",
      "doc/_static/bootswatch-3.3.6/lumen",
      "doc/_static/bootswatch-3.3.6/paper",
      "doc/_static/bootswatch-3.3.6/readable",
      "doc/_static/bootswatch-3.3.6/sandstone",
      "doc/_static/bootswatch-3.3.6/simplex",
      "doc/_static/bootswatch-3.3.6/slate",
      "doc/_static/bootswatch-3.3.6/spacelab",
      "doc/_static/bootswatch-3.3.6/superhero",
      "doc/_static/bootswatch-3.3.6/united",
      "doc/_static/bootswatch-3.3.6/yeti",
      "doc/_static/bootswatch-3.4.1",
      "doc/_static/bootswatch-3.4.1/cerulean",
      "doc/_static/bootswatch-3.4.1/cosmo",
      "doc/_static/bootswatch-3.4.1/cyborg",
      "doc/_static/bootswatch-3.4.1/darkly",
      "doc/_static/bootswatch-3.4.1/flatly",
      "doc/_static/bootswatch-3.4.1/fonts",
      "doc/_static/bootswatch-3.4.1/journal",
      "doc/_static/bootswatch-3.4.1/lumen",
      "doc/_static/bootswatch-3.4.1/paper",
      "doc/_static/bootswatch-3.4.1/readable",
      "doc/_static/bootswatch-3.4.1/sandstone",
      "doc/_static/bootswatch-3.4.1/simplex",
      "doc/_static/bootswatch-3.4.1/slate",
      "doc/_static/bootswatch-3.4.1/spacelab",
      "doc/_static/bootswatch-3.4.1/superhero",
      "doc/_static/bootswatch-3.4.1/united",
      "doc/_static/bootswatch-3.4.1/yeti",
      "doc/_static/css",
      "doc/_static/css/fonts",
      "doc/_static/dark_mode_css",
      "doc/_static/dark_mode_js",
      "doc/_static/js",
      "gui",
      "gui/game",
      "gui/game/audio",
      "gui/game/cache",
      "gui/game/gui",
      "gui/game/images",
      "launcher",
      "launcher/game",
      "launcher/game/fonts",
      "launcher/game/gui7",
      "launcher/game/images",
      "launcher/game/tl",
      "launcher/game/tl/arabic",
      "launcher/game/tl/danish",
      "launcher/game/tl/finnish",
      "launcher/game/tl/french",
      "launcher/game/tl/german",
      "launcher/game/tl/greek",
      "launcher/game/tl/indonesian",
      "launcher/game/tl/italian",
      "launcher/game/tl/japanese",
      "launcher/game/tl/korean",
      "launcher/game/tl/malay",
      "launcher/game/tl/piglatin",
      "launcher/game/tl/polish",
      "launcher/game/tl/portuguese",
      "launcher/game/tl/russian",
      "launcher/game/tl/schinese",
      "launcher/game/tl/spanish",
      "launcher/game/tl/tchinese",
      "launcher/game/tl/turkish",
      "launcher/game/tl/ukrainian",
      "launcher/game/tl/vietnamese",
      "launcher/skin",
      "module",
      "module/include",
      "module/libhydrogen",
      "module/libhydrogen/impl",
      "module/libhydrogen/impl/gimli-core",
      "module/libhydrogen/impl/random",
      "module/pysdlsound",
      "module/tinyfiledialogs",
      "renpy",
      "renpy/angle",
      "renpy/audio",
      "renpy/common",
      "renpy/common/_compat",
      "renpy/common/_developer",
      "renpy/common/_layout",
      "renpy/common/_outline",
      "renpy/common/_placeholder",
      "renpy/common/_roundrect",
      "renpy/common/_theme_amie2",
      "renpy/common/_theme_austen",
      "renpy/common/_theme_awt",
      "renpy/common/_theme_bordered",
      "renpy/common/_theme_crayon",
      "renpy/common/_theme_diamond",
      "renpy/common/_theme_glow",
      "renpy/common/_theme_marker",
      "renpy/common/_theme_regal",
      "renpy/common/_theme_threeD",
      "renpy/common/_theme_tv",
      "renpy/compat",
      "renpy/display",
      "renpy/exports",
      "renpy/gl",
      "renpy/gl2",
      "renpy/sl2",
      "renpy/styledata",
      "renpy/test",
      "renpy/text",
      "renpy/translation",
      "renpy/uguu",
      "renpy/update",
      "sdk-fonts",
      "sphinx",
      "sphinx/game",
      "sphinx/game/cache",
      "sphinx/source",
      "sphinx/source/__pycache__",
      "sphinx/source/_static",
      "sphinx/source/_templates",
      "sphinx/source/gui",
      "sphinx/source/oshs",
      "sphinx/source/oshs/game",
      "sphinx/source/oshs/game/cache",
      "sphinx/source/oshs/game/gui",
      "sphinx/source/oshs/game/gui/bar",
      "sphinx/source/oshs/game/gui/button",
      "sphinx/source/oshs/game/gui/overlay",
      "sphinx/source/oshs/game/gui/phone",
      "sphinx/source/oshs/game/gui/phone/overlay",
      "sphinx/source/oshs/game/gui/scrollbar",
      "sphinx/source/oshs/game/gui/slider",
      "sphinx/source/oshs/game/images",
      "sphinx/source/presplash",
      "sphinx/source/quickstart",
      "the_question",
      "the_question/game",
      "the_question/game/gui",
      "the_question/game/gui/bar",
      "the_question/game/gui/button",
      "the_question/game/gui/overlay",
      "the_question/game/gui/phone",
      "the_question/game/gui/phone/overlay",
      "the_question/game/gui/scrollbar",
      "the_question/game/gui/slider",
      "the_question/game/images",
      "the_question/game/tl",
      "the_question/game/tl/None",
      "the_question/game/tl/czech",
      "the_question/game/tl/danish",
      "the_question/game/tl/french",
      "the_question/game/tl/italian",
      "the_question/game/tl/japanese",
      "the_question/game/tl/korean",
      "the_question/game/tl/malay",
      "the_question/game/tl/russian",
      "the_question/game/tl/schinese",
      "the_question/game/tl/spanish",
      "the_question/game/tl/tchinese",
      "the_question/game/tl/ukrainian",
      "tutorial",
      "tutorial/game",
      "tutorial/game/gui",
      "tutorial/game/gui/bar",
      "tutorial/game/gui/button",
      "tutorial/game/gui/overlay",
      "tutorial/game/gui/phone",
      "tutorial/game/gui/phone/overlay",
      "tutorial/game/gui/scrollbar",
      "tutorial/game/gui/slider",
      "tutorial/game/images",
      "tutorial/game/tl",
      "tutorial/game/tl/None",
      "tutorial/game/tl/french",
      "tutorial/game/tl/japanese",
      "tutorial/game/tl/korean",
      "tutorial/game/tl/piglatin",
      "tutorial/game/tl/russian",
      "tutorial/game/tl/schinese",
      "tutorial/game/tl/spanish",
      "tutorial/game/tl/ukrainian"
    ],
    "xbit": [
      "renpy.py",
      "sphinx/build.sh"
    ]
  }
}